Line,1
Meter Channels,ADVENTURE PARK PTY LTD - S1 6203002034 kVARh In 1
Meter Units,kVAR
Export Units,kVARh
Consumption (kVARh),124985.58
Load Factor,10.28
Peak Value,103.83

28 Jun 19,1.96,1.71,1.71,1.32,2.03,1.57,1.86,2.98,4.18,4.41,4.82,5.07,5.48,5.67,4.67,4.44,2.96,1.75,1.71,2.05,2.4,1.78,2.01,1.63
29 Jun 19,2.15,1.79,1.81,1.74,1.89,1.64,1.68,1.71,2.01,1.98,2.44,2.25,2.28,2.11,2.38,2.13,2.12,1.82,1.96,1.98,1.68,2.04,1.82,1.74
30 Jun 19,1.61,1.77,1.68,1.67,1.39,1.41,1.58,1.39,2.2,2.06,1.86,2.1,2.2,2.04,1.94,1.89,2.09,1.7,1.74,1.79,1.54,1.71,1.78,1.44
01 Jul 19,1.77,1.61,1.54,1.42,1.46,1.53,1.47,2.66,2.78,4.05,4.18,3.99,3.81,3.73,4.16,2.42,2.03,1.5,1.46,1.3,1.3,1.16,1.34,1.3
02 Jul 19,1.05,1.18,1.25,1.05,1.05,1.12,1.45,2.2,3.04,3.7,3.8,3.86,4.67,4.35,4.81,3.13,2.62,1.69,1.3,1.34,1.48,1.37,1.17,1.22
03 Jul 19,1.38,1.13,1.16,1.39,1.1,1.06,1.62,2.62,3.03,4.18,4.46,5.01,4.7,4.67,4.77,3.27,2.6,1.47,1.21,1.45,1.43,1.33,1.18,1.1
04 Jul 19,1.28,1.3,0.95,1.31,1.1,1.05,1.46,2.24,2.55,2.89,4.2,4.55,4.23,4.32,4.08,3.3,2.48,1.58,0.97,1.23,1.33,1.13,1.12,0.95
05 Jul 19,1.21,0.98,1.26,0.86,0.88,0.9,1.3,2.38,2.67,3.95,3.24,3.81,3.52,2.55,2.15,2.27,1.9,1.3,1.36,1.22,1.34,1.3,1.29,1.18
06 Jul 19,1.26,1.15,0.83,1.1,0.78,1.15,1.1,1.12,1.58,1.67,1.66,2.28,2.21,2.06,1.96,2.3,1.62,2.1,1.64,1.69,1.49,1.41,1.14,1.6
07 Jul 19,1.29,1.28,1.18,1.34,1.03,1.38,1.22,1.18,1.49,1.8,1.9,2.1,2.22,2.33,2.06,1.95,1.48,1.42,1.49,1.54,1.37,1.66,1.38,1.24
08 Jul 19,1.42,1.45,1.46,1.32,1.06,1.24,1.48,2.13,3,4.67,4.55,5.13,5.06,5.07,4.81,3.91,3.1,2.25,2.07,1.73,1.91,1.72,1.56,1.7
09 Jul 19,1.43,1.74,1.33,1.25,1.39,1.38,1.82,2.42,3.2,4.29,4.48,5.12,5.49,4.49,4.69,3.51,2.87,1.75,1.45,1.58,1.35,1.62,1.06,1.31
10 Jul 19,1.39,1.16,1.39,1.29,1.18,1.05,1.57,2.5,2.85,3.65,3.72,4.1,3.88,3.71,4.04,2.91,2.31,1.64,1.39,1.58,1.46,1.26,1.05,1.06
11 Jul 19,0.97,1.35,1.4,0.99,1.08,1.12,1.19,2.42,2.68,3.24,3.73,4.14,3.73,3.5,3.64,2.64,2.27,1.5,1.72,1.44,1.45,1.16,1.48,1.38
12 Jul 19,1.22,1.34,1.39,1.34,1.25,1.13,1.49,2.02,2.62,4.5,4.54,4.54,4.21,4.38,4.78,3.69,2.89,1.66,1.66,1.66,1.57,1.68,1.35,1.65
13 Jul 19,1.21,1.4,1.46,1.12,1.45,1.14,1.32,1.15,1.74,1.7,1.57,1.93,1.79,1.91,1.79,1.89,1.71,1.69,1.34,1.69,1.45,1.38,1.51,1.2
14 Jul 19,1.54,1.06,1.42,1.13,1.38,1.14,1.46,1.17,1.73,1.81,1.68,1.81,1.86,1.96,2.06,1.75,1.71,1.68,1.68,1.5,1.34,1.42,1.21,1.38
15 Jul 19,1.42,1.24,1.21,1.39,1.38,1.21,1.72,2.46,4,4.8,4.38,4.81,4.45,5.11,5.58,2.5,2.41,1.83,1.48,1.46,1.35,1.47,1.5,1.49
16 Jul 19,1.33,1.22,1.34,1.14,1.34,1.08,1.65,3.28,3.79,4.9,4.86,5.33,5.08,5.16,5.61,2.72,3.02,1.68,1.57,1.46,1.58,1.15,1.55,1.39
17 Jul 19,1.46,1.17,1.46,1.05,1.2,1,1.57,3.4,4.95,5.62,5.06,5.88,5.65,5.96,5.9,2.9,2.87,1.6,1.71,1.33,1.64,1.22,1.39,1.29
18 Jul 19,1.1,1.22,1.37,1.18,1.01,1.11,1.55,3.84,5.18,4.4,5.06,5.16,5.24,4.52,4.63,3.34,3.52,2.26,1.73,1.52,2.12,1.98,1.86,2.01
19 Jul 19,1.78,1.21,1.85,1.65,1.67,1.53,2.06,3.13,4.42,4.7,4.89,4.59,4.82,4.86,4.44,1.97,2.05,1.58,1.6,1.24,1.46,1.28,1.21,1.28
20 Jul 19,1.25,1.25,1.33,1.1,1.35,1.22,0.93,1.3,1.46,1.54,1.72,1.54,1.85,1.96,2.04,1.81,1.86,1.92,1.27,1.26,1.4,1.26,1.2,1.13
21 Jul 19,1.5,1.51,1.31,1.28,1.12,1.34,1.01,1.26,1.67,1.9,2.24,2.17,2.1,2.27,2.14,1.75,1.7,1.54,2.02,1.72,1.56,1.77,1.64,1.23
22 Jul 19,1.4,1.55,1.03,1.44,1.34,1.08,1.9,3.04,3.62,4.18,3.74,4.65,4.5,4.86,4.71,2.75,2.47,1.74,1.49,1.51,1.34,1.53,1.47,1.38
23 Jul 19,1.2,1.26,1.2,1.12,1,1.15,1.57,2.82,3.25,3.48,4,4.32,4.48,4.62,3.97,1.82,1.86,1.5,1.37,1.57,1.43,1.15,1.27,1.26
24 Jul 19,1.03,1.4,1.18,1.14,1.29,1,1.77,3.15,3.43,4.3,3.92,4.46,4.51,4.66,4.62,2.29,2.16,1.69,1.36,1.57,1.34,1.2,1.34,1.38
25 Jul 19,1.3,1.31,1.15,1.25,1.26,1.1,1.43,2.85,3.52,4.23,4.35,4.27,4.26,4,3.26,2.14,2.01,1.75,1.66,1.76,1.35,1.52,1.4,1.46
26 Jul 19,1.18,1.24,1.14,1.06,1.08,1.03,2.1,2.62,2.8,3.83,4.14,4.22,3.56,4.06,3.57,2.47,2.5,1.92,1.6,1.56,1.18,1.86,1.93,1.23
27 Jul 19,1.46,1.68,1.3,1.51,1.5,1.06,1.25,1.59,1.32,1.63,1.32,1.84,1.82,2.18,1.52,1.64,1.79,1.85,1.79,1.97,1.38,1.71,1.7,1.57
28 Jul 19,1.36,1.59,1.14,1.46,1.25,1.04,1.21,1.38,1.7,1.69,1.91,1.89,1.58,2.34,1.74,1.52,1.64,1.74,1.49,1.57,1.4,1.23,1.34,1.25
29 Jul 19,1.2,1.39,1.05,1.37,1.12,1.11,1.43,2.56,2.72,3.78,3.86,3.71,4.11,3.9,3.87,2.48,2.07,1.38,1.33,1.48,1.55,1.74,1.57,1.37
30 Jul 19,1.29,1.25,1.21,0.97,1.29,1.02,1.72,2.89,3.72,4.42,4.21,3.59,4.3,3.82,3.65,2.47,2,1.24,1.26,1.04,1.31,1.3,1.12,0.9
31 Jul 19,1.2,1.14,0.86,1.14,0.88,0.84,1.65,2.7,3.79,4.44,4.18,3.78,4.12,3.87,3.42,2.56,2.32,1.33,1.25,1.31,1.07,1.17,1.21,1.22
01 Aug 19,0.97,1.22,0.96,0.8,1.1,0.83,1.63,2.86,3.4,3.7,4.24,4.81,4.03,4.1,3.65,3.34,2.79,1.83,1.68,1.58,1.61,1.73,1.34,1.47
02 Aug 19,1.54,1.58,1.02,1.49,1.24,1.23,1.86,3.16,4.81,5.02,4.53,5.01,5.15,5.02,4.34,2.08,2.26,1.78,2.22,1.92,1.61,1.9,1.61,1.76
03 Aug 19,1.37,1.53,1.44,1.43,1.3,1.36,1.37,1.66,1.75,2.27,2.3,2.44,2.32,2.39,1.98,1.94,1.78,1.66,1.73,1.72,1.45,1.7,1.54,1.5
04 Aug 19,1.18,1.57,1.34,1.12,1.5,1.2,1.3,1.35,1.7,1.84,1.7,1.87,1.71,1.85,1.81,1.99,1.67,1.6,1.78,1.86,1.86,1.64,1.53,1.37
05 Aug 19,1.25,1.44,1.22,1,1.28,1.21,1.54,3.07,3.76,4.69,4.85,4.64,4.81,4.69,4.37,2.86,2.82,2.04,1.57,1.25,1.41,1.49,1.13,1.13
06 Aug 19,1.58,1.24,1.12,1.21,1.09,1.24,1.7,2.47,3.03,3.04,3.12,2.98,3.47,3.33,3.42,2.44,1.49,1.36,1.72,1.31,1.44,1.26,1.34,1.22
07 Aug 19,1.26,1.17,1.3,1.1,1.42,0.81,1.84,2.51,3.43,10.02,16.41,15.94,17.06,16.34,16.75,3.54,2.74,1.49,1.59,1.3,1.42,1.39,1.36,1.35
08 Aug 19,1.21,1.16,1.21,1.07,0.91,1.06,1.75,2.59,3.11,4.13,4.9,5.18,4.86,4.9,4.66,2.92,2.47,2.06,1.38,1.44,1.46,1.4,1.12,1.14
09 Aug 19,1.29,0.91,1.25,1.12,0.86,1.17,1.45,2.34,2.92,4.16,4.46,4.77,4.1,4.3,3.68,1.93,2.17,1.44,0.87,0.92,0.92,1.32,0.96,1.2
10 Aug 19,0.89,1.01,0.77,1,0.99,0.82,1.03,0.88,1.01,1.61,1.49,1.46,1.02,1.24,1.61,1.46,1.4,1.22,1.02,1.43,1.22,0.9,1.25,1.06
11 Aug 19,1.12,0.88,1.03,1.1,0.83,0.9,0.88,0.91,1.48,0.99,1.46,1.33,1.71,1.51,1.5,1.48,1.36,1.8,1.41,0.94,1.29,1.14,1.14,1.23
12 Aug 19,1.05,1.18,0.84,1.1,1.06,0.76,1.54,2.39,3.09,4.62,4.03,4.55,4.05,5.09,5.44,3.14,1.88,1.34,1.21,1.37,1.21,2.53,2.51,1.79
13 Aug 19,1.19,0.96,1.07,1.2,0.96,1.11,1.44,2.94,3.44,3.14,3.93,4.32,4.05,3.63,3.94,3.26,2.36,2.16,1.75,1.77,1.98,1.93,1.62,2.1
14 Aug 19,1.86,2.06,1.75,1.64,1.52,1.74,2.23,3.08,3.24,4.35,5.14,4.95,5.31,5.26,4.94,4.46,4.45,1.91,1.2,1.44,1.16,1.34,1,1.17
15 Aug 19,1.02,0.86,1.01,0.71,0.89,1.22,1.46,2.54,2.82,4.16,5.22,5.29,5.15,4.97,4.88,4.21,2.94,2.06,1.27,1.2,1.94,1.46,1.19,1.33
16 Aug 19,1.12,1.31,1.42,0.98,0.92,1.33,1.57,2.69,3.66,4.28,4.8,5.58,5.21,5.38,4.86,3.08,2.82,1.98,1.29,1.81,1.49,1.34,1.17,1.52
17 Aug 19,1.26,1.45,1.06,1.3,1.17,1.24,1.17,1.24,1.58,1.87,1.83,1.93,1.81,2.18,1.97,1.97,1.71,1.99,1.42,1.76,1.52,1.52,1.17,1.53
18 Aug 19,1.27,1.22,1.29,1.21,1.02,1.32,1.16,1.54,1.67,2.3,1.9,2.34,1.92,1.86,1.97,1.79,1.77,1.64,1.4,1.67,1.78,1.62,1.38,1.22
19 Aug 19,1.19,1.16,1.22,1.12,1.14,1.06,1.49,2.7,2.58,4.34,4.82,4.68,4.85,4.93,4.94,3.31,2.6,1.56,1.32,1.35,1.24,1.24,1.02,1.2
20 Aug 19,1.12,1.02,1.18,1.14,1.01,0.98,1.02,2.36,2.94,3.74,3.97,3.95,6.55,16.9,9.32,3.12,3.25,1.72,1.38,1.69,1.42,1.5,1.25,1.38
21 Aug 19,1.23,1.24,1.32,1.35,1.32,1.14,1.33,3.39,3.85,4.56,4.99,17.01,16.12,15.81,14.72,15.04,14.79,13.76,13.5,14.13,13.86,13.7,13.56,13.14
22 Aug 19,13.06,13.28,12.69,12.52,12.28,11.99,12.38,13.01,3.93,4.26,4.8,5.06,4.69,4.46,4.62,2.51,2.34,1.74,1.34,1.41,1.21,1.35,1.55,1.01
23 Aug 19,1.3,1.25,1.06,1.26,0.96,1.06,0.88,3.04,3.39,4.75,5.3,5.3,5.66,6.34,5.78,3.27,3.14,2.14,1.6,1.91,1.68,1.74,1.8,1.64
24 Aug 19,1.34,1.54,1.62,1.25,1.5,1.26,1.36,1.64,1.92,2.22,2.42,2.54,2.54,2.38,2.16,2.38,2.27,2.06,1.95,1.94,2.08,1.71,1.67,1.65
25 Aug 19,1.29,1.57,1.55,1.09,1.56,1.13,1.27,1.57,1.56,1.67,2.01,2.33,2.01,2.06,2.36,1.83,1.83,1.82,1.53,1.6,1.3,1.46,1.38,1.41
26 Aug 19,1.2,1.47,1.08,1.26,1.25,1.2,1.58,3.49,7.22,16.92,17.72,15,6.29,6,5.46,3.75,3.15,1.94,1.76,1.73,1.81,1.28,1.76,1.28
27 Aug 19,1.4,1.32,1.2,1.08,1.31,0.98,1.55,2.51,3.5,4.06,4.77,4.48,4.62,4.61,4.51,3.64,3.12,2.33,1.65,1.8,1.74,1.84,1.94,1.33
28 Aug 19,1.73,1.85,2.44,2.45,1.84,1.35,2.17,3.59,3.73,3.93,4.68,4.95,5.44,10.76,16.19,7.34,3.83,2.53,2.47,2.53,2.18,2.43,2.26,1.82
29 Aug 19,2.34,2.23,1.84,2.15,1.77,1.97,2.58,4.48,5,6.35,6.84,6.61,6.22,5.89,5.91,3.91,3.92,3.06,2.58,2.38,2.5,2.32,2.44,1.96
30 Aug 19,2.47,2.29,2.14,2.38,2.1,2.13,2.52,3.65,3.83,4.7,4.86,4.36,5.11,5.53,5.45,4.14,3.73,2.18,2.22,2.23,1.76,1.99,1.84,1.88
31 Aug 19,1.59,1.8,1.52,1.89,1.58,1.73,1.58,2,2.06,2.22,2.25,2.2,2.35,2.58,2.71,2.71,2.74,1.82,1.87,1.84,1.71,1.79,1.84,1.54
01 Sep 19,1.84,1.6,1.66,1.69,1.61,1.38,1.41,2.09,2.04,2.16,1.95,2.05,2.26,2.32,2.25,2.16,2.37,2.07,1.98,2,1.86,1.97,1.94,1.82
02 Sep 19,2.02,1.87,1.46,1.97,1.68,1.55,2.39,4.11,4.62,5.38,5.47,5.86,4.8,5.02,5.08,3.47,3.09,2.38,2.18,1.74,2.02,1.8,1.9,1.63
03 Sep 19,1.72,1.64,1.57,1.72,1.3,1.5,1.94,3.54,3.76,4.34,4.97,5.9,6.16,6.27,6.53,5.38,3.86,3.06,2.2,1.84,1.62,2.03,1.77,1.61
04 Sep 19,1.82,1.75,1.34,1.69,1.65,1.22,1.98,2.77,4.51,16.72,16.42,16.32,16.4,16.15,16.26,6.14,3.59,2.34,2.04,2.2,1.94,2.18,1.84,1.78
05 Sep 19,1.92,1.61,1.71,2.08,1.78,1.37,1.89,3.33,3.76,5.12,4.89,5.03,5.07,5.26,5.02,5.84,3.82,2.84,2.43,2.52,2.37,2.5,2.39,2.09
06 Sep 19,2.21,2.22,2.02,2.33,2.06,1.97,2.66,4.34,4.88,5.74,6.25,6.41,5.7,5.92,7.02,5.54,3.72,2.78,2.29,2.09,1.81,2.58,2.1,1.8
07 Sep 19,1.7,1.62,1.47,1.85,1.42,1.28,1.76,1.88,1.76,2.08,1.86,2.1,1.92,1.93,2.06,2.11,1.97,2.1,1.78,1.52,1.82,1.63,1.74,1.93
08 Sep 19,1.46,1.72,1.62,1.19,1.49,1.5,1.42,1.85,1.94,2.09,1.83,1.89,2.01,1.96,1.94,2.03,1.86,2.16,1.74,1.62,1.82,1.69,1.38,1.52
09 Sep 19,1.67,1.38,1.75,1.3,1.31,1.07,1.97,2.87,2.99,5.03,5.05,5.26,4.91,5.27,5.58,5.05,3.72,2.28,1.7,1.87,1.78,1.8,1.43,1.93
10 Sep 19,1.53,1.74,1.58,1.45,1.3,1.49,1.87,2.82,3.3,3.98,3.58,4.06,4.7,4.91,4.7,4.58,3.03,2.35,1.94,1.96,2.29,1.71,1.8,1.78
11 Sep 19,1.54,1.58,1.3,1.57,1.17,1.22,2.57,3.13,3.78,4.62,4.85,5.43,5.79,5.46,5.36,4.74,3.91,2.85,2.16,2.07,2.3,2.17,1.74,1.95
12 Sep 19,2.1,2.02,1.83,1.87,1.94,1.84,2.37,3.98,4.49,5.91,5.79,5.22,5.18,5.3,5.48,5.31,3.68,3.35,2.14,1.87,2.14,1.95,1.58,1.7
13 Sep 19,1.66,1.69,1.52,1.58,1.65,1.33,2.14,4.07,4.22,5.06,5.12,4.33,4.41,4.62,7.1,4.14,3.18,3.17,2.38,2.34,2.32,2.08,1.86,1.91
14 Sep 19,2.28,1.92,1.92,1.86,1.9,1.7,1.87,1.76,2.4,2.61,2.42,3.1,2.63,2.74,2.93,2.75,2.74,2.73,2.1,2.17,2.53,2.26,2.07,2.12
15 Sep 19,2.18,2.18,2.36,1.94,1.97,2.3,2.11,2.11,2.82,2.72,2.43,2.88,2.78,2.62,3,2.67,2.61,2.23,2.08,1.93,2.32,2.08,1.9,2
16 Sep 19,1.86,1.62,2.08,1.82,1.5,1.75,2.14,3.28,3.9,4.78,4.24,4.31,4.52,4.28,4.77,4.66,3.25,2.55,2.22,1.94,2.19,1.68,1.74,1.87
17 Sep 19,1.48,1.78,1.63,1.62,1.56,1.41,2.18,3.12,3.1,3.61,4.14,3.72,4.81,4.48,4.41,3.66,3.2,2.35,2.01,2.1,1.9,1.74,1.54,1.74
18 Sep 19,1.72,1.86,1.66,1.46,1.27,1.42,2.07,3.36,2.94,4.42,4.54,4.75,4.97,5.32,5.06,4.98,3.81,3.18,2.05,1.94,1.88,2.01,1.74,1.71
19 Sep 19,1.72,1.94,1.53,1.9,1.59,1.59,2.5,3.16,3.81,4.29,5.08,5.38,5.25,5.41,5.33,4.89,4.8,3.01,2.9,3.32,3.1,2.93,2.87,2.63
20 Sep 19,2.69,3.13,2.96,2.7,2.93,2.38,3.36,4.55,5.15,5.53,5.95,6.46,6.57,6.26,4.36,4.12,4.17,3.5,2.76,2.69,2.88,2.4,2.49,2.41
21 Sep 19,2.67,2.56,2.42,2.31,2.44,2.46,2.23,2.29,2.38,2.26,2.71,2.88,2.44,2.69,2.67,2.42,2.61,2.47,2.34,2.39,2.3,2.28,1.92,2.06
22 Sep 19,2.04,2.04,1.84,1.55,1.98,1.85,1.79,2.18,1.94,2.01,2.54,2.36,2.37,2.45,2.32,2.48,2.72,2.44,1.96,1.91,1.84,2,1.83,1.94
23 Sep 19,1.62,1.7,1.81,1.55,1.55,1.66,1.86,2.35,2.45,3.23,3.4,3.54,3.35,3.82,3.65,3.34,3.54,2.3,2.14,1.89,1.98,1.84,1.93,1.9
24 Sep 19,1.57,1.98,1.68,1.38,1.6,1.34,2.19,3.18,3.48,4.13,4.62,4.69,4.61,5.02,4.77,4.55,3.41,2.53,1.89,2.15,1.98,1.61,1.79,1.8
25 Sep 19,1.46,1.78,1.59,1.39,1.43,1.49,2.11,3.09,3.38,4.7,4.68,4.72,4.6,4.91,4.72,5.19,4.09,3.39,2.38,2.1,1.96,1.88,1.67,1.89
26 Sep 19,1.43,1.8,1.93,1.43,1.66,1.64,2.99,3.78,4.48,11.77,17.86,16.62,15.87,14.82,7.69,3.92,3.69,2.58,2.66,2.93,2.26,2.26,1.95,1.98
27 Sep 19,2.06,1.98,1.57,1.67,1.78,1.76,1.83,2.05,2.43,2.21,2.74,3.22,3.21,3.01,2.74,2.9,3.09,2.99,2.54,2.54,2.5,2.29,2.74,2.45
28 Sep 19,2.38,2.19,2.2,1.82,1.96,2.06,2.05,2.6,2.56,2.85,2.78,2.99,3.34,3.29,2.87,3.14,3.17,3.07,2.28,3,2.35,2.22,2.34,2.3
29 Sep 19,2.54,2.14,2.18,2.1,2.16,2.12,2.48,2.42,2.56,2.87,3.17,3.16,3.22,3.19,2.93,3.02,2.94,2.98,2.7,2.49,2.33,2.4,2.52,2.46
30 Sep 19,2.3,2.5,2.14,2.18,2.23,2.1,3.19,5.09,5.59,6.53,6.63,6.84,7.38,7.37,6.53,6.76,5.12,3.54,3.1,2.87,2.72,2.82,2.25,2.42
01 Oct 19,2.58,2.54,2.67,2.27,2.36,2.23,3.53,4.12,4.29,5.82,5.86,6.03,6.58,6.82,6.06,6.3,4.7,4.34,2.87,2.97,2.75,2.85,2.65,2.44
02 Oct 19,2.8,2.43,2.2,2.3,2.18,2.34,2.93,4.36,5.03,6.17,6.63,6.36,7.52,7.82,18.2,10.03,5.92,5.04,3.95,3.48,3.33,3.48,3.1,3.01
03 Oct 19,3.32,3.11,3.03,3.13,3.12,2.9,3.7,4.57,4.46,5.62,5.65,3.74,4.46,4.03,3.36,3.76,3.86,3.66,2.55,2.54,2.68,2.67,2.04,2.22
04 Oct 19,2.38,2.24,1.92,2.02,1.88,1.7,3.1,3.37,4.01,4.96,5.76,5.57,6.39,6,5.91,4.07,3.3,2.44,2.54,2.2,1.87,2.23,1.86,1.78
05 Oct 19,2.38,1.92,1.94,1.53,1.9,1.47,2.38,2.11,2.02,2.83,2.66,2.54,2.97,2.82,3.08,2.69,2.5,2.39,2.34,2.02,2.11,2.65,2.14,2.11
06 Oct 19,2.85,2.68,2.27,2.37,2.26,2.54,2.75,2.94,2.74,3,2.8,3.06,3.18,2.96,2.64,2.72,2.62,2.68,2.89,2.54,2.53,2.45,2.07,1.97
07 Oct 19,2.18,2.07,2.28,1.91,1.94,3.41,4.58,4.85,9.66,16.66,16.37,17.1,5.63,5.29,5.23,4.21,2.95,2.39,2.18,2.06,1.87,1.77,1.82,1.76
08 Oct 19,1.89,1.81,1.55,1.92,1.9,2.44,4.1,4.33,5.09,5.76,5.42,5.85,4.73,4.41,3.63,2.58,2.25,2.5,2.08,1.82,2.2,1.94,1.51,1.98
09 Oct 19,1.9,1.81,1.56,1.47,2.52,3.16,3.87,4.82,4.76,7.15,17.83,12.82,5.58,5.69,4.53,3.24,2.49,2.6,2.15,1.99,2.3,2.1,1.81,2.07
10 Oct 19,2.15,1.79,1.81,2.04,1.43,2.81,3.87,4.62,5.59,6.27,6.18,5.64,5.67,5.81,6.1,5.76,4.13,3.07,2.9,2.9,3.06,2.97,2.57,2.51
11 Oct 19,2.81,2.6,2.42,2.44,2.27,3.37,5.43,5.94,6.32,6.48,6.94,6.85,6.57,5.86,5.89,4.45,3.14,2.81,2.57,2.2,2.82,2.59,2.17,1.96
12 Oct 19,1.9,2.15,2.03,1.87,1.84,1.7,2.26,2.61,2.6,2.44,2.58,2.85,2.81,2.91,3.02,2.84,2.94,3.25,2.46,2.24,2.37,2.52,2.22,2.02
13 Oct 19,2.11,2.25,2.25,2.27,1.92,1.94,1.94,2.42,2.36,2.51,3.16,3.14,3.13,3.33,3.25,3.42,3.7,3.19,2.77,2.41,2.68,2.94,2.12,2.13
14 Oct 19,2.22,2.05,2.31,2.17,2.44,2.59,4.46,4.66,5.62,6.09,6.35,6.77,6.06,5.85,4.56,4.32,4.22,3.28,2.74,2.34,2.57,2.61,2.42,2.48
15 Oct 19,2.62,2.3,2.16,2.26,1.93,2.65,4.17,4.98,4.88,5.59,5.3,5.62,5.74,5.23,5.06,4.89,3.89,3.27,2.92,2.66,2.83,2.58,2.32,2.35
16 Oct 19,2.4,2.14,2.22,2.01,1.88,2.64,4.57,4.66,5.78,6.44,7.21,5.26,5.55,6.05,5.65,3.92,3.78,3,2.83,2.52,2.28,2.38,2.3,2.09
17 Oct 19,2.17,2.14,1.93,1.58,2.1,2.23,3.02,3.73,4.07,4.02,4.6,4.2,4.43,4.72,4.05,2.35,3.38,2.66,2.4,2.07,2.23,2.02,2.32,1.64
18 Oct 19,1.93,1.69,1.84,1.38,2.06,2.25,2.98,3.27,4.84,5.16,6.34,6.1,6.5,6.35,4.77,4.12,4.7,3.47,3.11,2.78,2.83,2.86,2.71,2.5
19 Oct 19,2.54,2.7,2.53,2.25,2.64,2.2,2.65,2.97,3.09,2.57,3.11,3.25,3.29,3.3,3.16,3.09,3.21,3.13,2.81,2.95,2.72,2.64,2.76,2.34
20 Oct 19,2.57,2.72,2.2,2.6,2.55,2.45,2.56,3.01,2.9,2.91,3.41,3.25,3.24,3.25,3.12,2.85,3.34,3.17,3.22,2.37,2.74,2.52,2.43,2.35
21 Oct 19,2.66,2.29,2.17,2.33,2.34,3.23,4.85,6.63,7.66,7.05,7.1,6.79,7.45,7.75,6.4,6.15,4.34,3.58,4.1,3.36,3.14,2.66,2.87,2.58
22 Oct 19,2.58,3.06,2.45,2.3,2.62,3.3,5.26,5.86,6.59,7.78,8.42,8.61,5.68,5.39,5.89,5.27,4.3,4.38,3.69,2.51,2.89,3.18,2.38,2.46
23 Oct 19,2.7,2.77,2.32,2.42,2.23,2.81,3.66,3.95,5.66,5.77,5.68,6.5,5.11,4.94,6.38,5.28,4.52,4.42,4.13,3.58,3.35,2.96,2.76,2.73
24 Oct 19,2.9,2.62,2.72,2.52,2.38,3.36,4.74,5.07,6.16,9.66,22.33,23.56,19.69,11.26,11.09,10.99,10.33,8.83,9.06,7.62,7.41,7.32,6.38,6.2
25 Oct 19,6.24,5.69,6.09,5.75,5.7,6.61,6.87,7.18,8.06,7.61,8.63,9.86,10.27,9.73,9.62,8.4,7.4,6.32,5.77,5.13,5.68,5.01,4.72,4.8
26 Oct 19,4.92,4.77,4.06,4.33,4.26,4.14,4.62,4.08,5.06,5.27,4.38,5.38,4.34,4.73,5.54,5.51,5.14,4.64,4.55,4.61,4.14,4.81,4.14,3.65
27 Oct 19,4.46,3.33,3.8,4.34,3.5,4.18,3.87,3.91,4.65,5.1,5.06,5.2,5.06,5.39,4.15,5.49,4.9,4.84,5.21,4.11,4.59,4.52,4.12,4.36
28 Oct 19,4.28,4.18,3.46,4.12,4.06,4.03,6.06,7.97,10.93,20.64,21.09,22.02,22.34,21.43,20.73,9.7,8.1,7.84,6.91,6.02,5.84,6.06,5.45,5.34
29 Oct 19,5.23,4.56,4.36,4.61,4,5.22,6,8.08,8.98,9.59,10.56,11.25,10.16,11.13,9.86,10.26,10.01,8.9,8.49,7.13,6.82,7.21,6.11,5.88
30 Oct 19,5.96,5.49,6.01,5.14,5.14,6.26,8.07,10.46,9.78,10.56,10.64,10.56,11.78,11.11,10.47,9.67,12.28,13.52,31.7,7.86,8.5,7.38,7.7,6.24
31 Oct 19,7.94,7.87,7.3,7.71,7.04,11.08,20.97,21.35,37.17,59.25,59.31,58.68,57.82,58.9,57.53,28.15,18.52,16.8,14.89,12.83,12.23,11.63,11.19,10.2
01 Nov 19,10.8,10.11,9.96,9.47,9.85,11.41,13.71,32.07,23.45,84.2,95.79,93.69,92.53,92.49,92.57,81.65,17.42,15.33,14.48,13.27,13.24,11.91,12.17,11.38
02 Nov 19,10.82,10.45,9.85,9.35,9.85,9.53,10.95,13.52,21.74,86.32,88.34,87.28,89.23,88.98,88.43,69.65,13.46,13.15,11.54,9.8,10.78,10.78,10.75,10.07
03 Nov 19,10.42,10.37,9.47,9.71,10.03,10.31,11.42,13.92,15.61,72.37,89.31,90.18,93.11,94.85,90.27,71.72,12.29,10.95,11.37,11.26,10.76,10.13,10.31,9.94
04 Nov 19,10.36,9.82,9.5,8.98,8.87,10.32,31.69,12.98,14.99,68.75,90.86,88.45,84.81,85.9,86.83,68.66,10.59,10.26,10.32,9.65,10.1,9.3,8.77,8.47
05 Nov 19,9.43,9.26,8.39,7.9,7.79,8.78,37.38,71.51,51.68,70.56,89.39,91.85,88.67,86.92,87.12,69.46,12.17,10.54,10.75,10.73,10.64,10.66,10.52,9.66
06 Nov 19,10.34,10.49,9.53,9.71,9.27,10.6,16.76,44.2,27.5,14.61,15.4,15.61,16.19,16.23,16.28,13.77,12.17,12.64,11.4,11.22,11.59,11.02,10.2,9.99
07 Nov 19,9.87,10.24,9.8,9.58,9.55,10.15,12.3,12.78,13.01,11.9,11.55,12.1,13.72,13.84,13.89,12.54,11.73,11.82,11.68,11.27,10.94,11.17,10.78,9.87
08 Nov 19,10.53,10.37,9.78,9.94,9.7,11.89,12.69,13.92,15.05,14.89,14.33,14.51,13.79,14.13,12.63,12.53,11.1,10.33,9.45,8.99,9.5,9.37,8.25,8.5
09 Nov 19,8.9,8.62,8.58,8.56,8.44,10.13,10.28,22.95,15.5,70.24,88.02,86.84,90.58,89.38,84.99,73.26,11.2,10.79,11.37,10.74,10.11,10.45,9.97,9.51
10 Nov 19,10.69,10.32,10.16,10.54,10.53,10.45,14.2,20.48,14.25,65.18,89.25,92.77,89.62,88.36,89.05,70.43,11.32,10.54,10.02,9.85,10.29,10.54,10.13,10.15
11 Nov 19,10.34,9.95,9.4,9.62,8.91,11.77,12.34,13.51,14.38,14.5,14.69,15.8,16.42,16.46,15.21,15.12,14.45,13.81,13.81,12.35,12.62,12.78,12.13,10.99
12 Nov 19,11.28,11.06,10.77,10.87,10.56,11.56,12.74,12.56,13.4,13.89,13.05,13.65,13.39,13.2,12.42,11.91,11.63,10.52,10.03,8.94,9.37,8.82,8.59,8.59
13 Nov 19,9.53,9.08,9.02,8.65,8.54,10.11,10.36,11.13,13.45,12.8,64.45,84.85,82.9,32.79,14.26,12.86,12.45,11.98,11.18,10.7,9.82,9.89,8.74,9.01
14 Nov 19,8.9,9.22,8.58,8.3,8.18,10.51,12.62,13.92,14.6,14.83,16.25,14.89,12.67,17.25,11.8,12.2,11.78,11.14,10.83,9.38,8.85,9.42,8.16,8.59
15 Nov 19,9.26,7.93,8.14,8.6,7.93,9.77,53.22,73.03,43.67,72,86.18,85.87,89.94,91.58,90.11,69.95,11,9.57,9.67,9.7,9.78,10.08,8.41,7.93
16 Nov 19,8.42,8.27,8.38,8.49,8.21,9.96,20.06,14.65,16.22,73.24,93.26,94.86,91.34,92.07,91.67,70.96,11.5,9.95,10.16,9.73,10.01,10.18,9.91,10.06
17 Nov 19,10.34,10.02,9.9,9.3,9.47,10.09,9.58,10.99,29.17,76.84,93.1,91.76,92.59,92.59,92.58,76.47,9.61,8.95,9.08,8.06,9.02,9.45,9.32,8.01
18 Nov 19,8.76,8.69,8.28,7.89,7.65,9.79,9.94,12.26,13.19,14.4,14.85,15.65,15.38,16.93,17.31,16.63,15.02,13.84,11.94,10.42,11.03,11,10.08,9.48
19 Nov 19,10.32,9.99,10.2,9.38,8.99,10.99,11.58,12.2,12.58,13.03,13.65,15,14.41,13.88,13.54,11.17,10.66,9.71,9.74,9.1,9.55,9.81,9.15,9.16
20 Nov 19,9.57,9.06,9.18,8.72,8.05,10.61,10.68,10.9,11.62,12.15,12.18,12.13,11.71,11.57,11.88,12.46,12.92,13.13,13.43,11.37,12.15,11.99,11.36,10.9
21 Nov 19,11.92,11.16,11.28,11.75,11.58,12.73,12.76,13.55,14.62,15.42,16.04,17.57,16.93,15.26,14.12,14.18,13.26,14.53,14.28,12.26,11.86,12.11,10.8,9.84
22 Nov 19,10.19,10.38,9.1,8.63,8.45,9.87,49.74,71.33,73.38,87.82,91.18,94.49,92.16,95.16,94.7,74.55,14.37,15.02,13.78,11.88,11.8,12.67,12.17,10.45
23 Nov 19,11.12,12.61,11.91,11.58,11.18,12.63,12.46,36.46,77.53,96,96.62,96.15,94.71,97.94,96.53,80.42,13.18,12.02,12.26,9.8,8.28,9.14,9.31,8.54
24 Nov 19,9.02,9.93,10.22,9.97,9.53,9.99,11.81,30.52,28.14,80.48,101.84,101.87,102.09,102.9,102.25,86.38,15.74,12.3,10.6,10.04,9.57,10.08,9.76,8.76
25 Nov 19,9.44,10.42,10.77,10.21,9.54,10.83,12.1,13.32,14.52,16.74,14.91,15.12,14.37,14.08,12.26,11.82,10.96,10.05,10.17,9.73,9.14,9.33,9.24,8.37
26 Nov 19,9.02,9.25,9.33,9.11,8.38,10.29,9.8,11.14,10.52,11.84,11.66,12.18,11.26,13.51,13.18,12.46,10.6,9.62,9.02,8.61,8.37,9.12,8.66,8.11
27 Nov 19,8.64,9.08,9.07,8.51,9.06,10.1,9.22,10.46,12.5,12.31,12.9,11.7,13.93,14.11,13.82,14.5,13.05,12.18,10.99,9.8,10.92,10.63,9.51,9.21
28 Nov 19,9.76,9.81,9.55,8.4,8.65,10.34,11.33,14.23,14.62,14.02,15.03,14.73,14,14.35,13.99,15.79,12.32,10.91,10.46,9.58,8.74,9.26,10.8,9.22
29 Nov 19,9.7,9.34,9.07,7.8,8.38,10.28,23.44,14.21,15.62,81.7,95.02,92.3,93.23,87.04,87.74,69.22,15.97,13.85,13.47,13.67,10.26,8.18,8.84,8.66
30 Nov 19,8.39,8.96,7.89,8.02,7.27,8.84,23.49,21.45,15.24,74.52,88.02,91.26,88.54,89.89,90.18,69.3,10.92,9.22,9.95,8.5,9.05,8.26,9.75,8.18
01 Dec 19,9.54,8.06,8.13,8.97,7.49,8.72,9.26,13.22,44.39,89.1,92.9,90.98,87.9,87.41,91.98,73.81,16.26,35.52,37.66,35.14,31.01,13.16,8.48,7.09
02 Dec 19,9.31,9.74,8.19,8.49,7.44,8.1,58.74,37.41,24.69,73.86,72.82,72.22,72.38,71.22,72.06,67.75,8.95,8.46,8.12,7.36,6.74,7.5,6.37,6.28
03 Dec 19,7.16,6.94,7.37,6.73,6.78,8.29,39.5,46.72,12.52,81.13,86.06,91.53,86.55,88.63,86.14,64.78,9.19,9.28,8.94,9.27,8.22,8.78,7.81,7.76
04 Dec 19,7.98,8.08,8.49,7.69,7.92,8.19,43.63,11,17.69,66.59,90.99,91.95,89.18,84.42,85.42,69.02,12.17,10.53,10.87,8.7,8.75,8.22,9.07,8.3
05 Dec 19,8.95,7.93,7.28,8.33,6.95,8.95,26.96,72.98,47.74,84.4,90.91,93.54,93.58,90,90.17,72.22,14.02,22.89,31.09,35.22,27.57,9.62,7.76,8.02
06 Dec 19,8.61,8.02,8.38,7.98,8.91,9.44,9.64,10.94,16.39,62.54,64.78,66.22,63.93,64.5,63.38,50.86,23.66,33.34,36.06,35.23,29.23,10.5,9.2,8.91
07 Dec 19,10.41,9.38,10.1,8.5,8.87,10.31,9.01,12.58,14.94,49.91,64.02,65.78,66.62,68.08,66.15,53.78,13.56,30.01,35.14,34.68,31.81,13.96,8.7,7.26
08 Dec 19,9.09,8.23,8.76,8.09,8.63,8.5,10.5,18.36,55.09,91.78,93.74,94.17,94.84,95.07,95.35,79.9,18.39,34.02,39.54,38.38,36.07,12.35,9.54,7.8
09 Dec 19,8.99,7.71,8.38,7.71,8.75,8.34,54.25,53.12,16.94,75.26,99.66,96.63,95.45,95.85,99.78,86.7,19.06,16.31,14.85,13.74,12.17,12.65,10.49,10.44
10 Dec 19,10.3,10.62,9.63,10.11,8.74,10.22,46,70.61,54.62,70.32,91.4,93.1,90.94,86.46,87.43,69.45,13.25,10.62,11.34,10.21,10.36,10.03,11.09,10.26
11 Dec 19,10.98,11.22,9.67,10.59,10.18,11.3,11.9,14.98,18.58,81.52,93.06,96.22,94.73,90.2,90.91,73.6,12,12.14,10.48,10.2,9.85,9.9,10.25,9.78
12 Dec 19,10.22,9.82,9.78,9.35,9.47,11.06,12.52,19.06,76.33,91.98,96.17,96.81,99.69,94.78,88.06,70.17,23.38,30.96,35.51,33.86,27.8,10.69,10.06,8.8
13 Dec 19,9.7,8.59,9.49,8.66,8.23,11.34,60.4,33.83,14.72,63.06,94.78,97.66,97.35,92.62,92.16,72.2,17.1,25.06,35.74,34.69,29.12,12.37,9.44,8.84
14 Dec 19,9.84,8.64,8.24,8.03,7.86,9.12,31.41,32.31,52.24,83.94,92.06,95.06,95.31,94.59,98.54,78.72,21.46,34.41,37.13,37.21,31.99,15.57,9.94,10.02
15 Dec 19,9.94,10.14,9.77,9.44,9.72,10.59,49.96,14.85,26.41,70.3,91.28,92.81,93.43,93.07,91.52,78.52,15.47,36.18,35.65,36.21,33.32,13.62,9.51,8.78
16 Dec 19,9.82,8.48,9.3,8.73,9.34,10.33,53.23,72.37,21.81,91.21,94.68,96.71,97.18,97.36,94.95,77.14,20.04,33.74,36.38,32.17,29.22,8.86,8.47,7.63
17 Dec 19,7.86,7.39,7.1,7.18,6.63,9.3,25.7,32.46,18.97,96.42,97.21,99.75,98.67,96.02,93.92,82.43,20.05,37.07,38.54,36.35,31.54,12.89,10.76,10.22
18 Dec 19,11.34,10.86,9.94,9.72,9.11,10.67,12.66,17.52,19.75,83.22,95.13,100.54,98.94,98.74,95.38,89.99,25.54,24.48,40.84,39.54,33.71,13.74,12.3,11.27
19 Dec 19,13.1,10.92,11.4,10.97,10.98,11.54,13.66,14.86,22.15,95.37,98.44,97.96,98.06,95.9,90.21,75.41,21.51,36.03,38.79,37.45,29.53,11.08,8.75,8.04
20 Dec 19,8.43,7.66,7.12,7.62,6.78,9.08,44.51,14.46,17.64,75.85,98.72,99.98,95.18,95.51,96.06,87.78,21.53,39.52,45.39,47.56,41.91,21.39,15.05,13.71
21 Dec 19,13.71,12.58,12.26,11.47,11.65,12.69,45.22,30.73,15.07,67.62,94.5,94.17,94.58,93.76,93.69,78.21,23.34,32.18,35.55,32.82,25.79,14.52,9.75,8.1
22 Dec 19,8.65,7.6,8.26,8,8.37,8.45,34.73,9.36,12.43,82.1,89.8,90.69,92.57,90.61,91.09,73.14,14.69,20.96,24.89,25.86,25.42,14.48,9.36,8.49
23 Dec 19,9.18,8.62,9.23,9.07,8.02,9.46,37.06,13.07,14.66,91.25,96.38,95.42,95.11,91.27,90.24,72.62,14.42,23.62,27.77,27.37,24.11,14.39,8.44,7.31
24 Dec 19,7.7,7.34,7.45,7.71,7.32,8.98,30.93,12.42,12.62,74.48,90.95,90.74,89.31,89.66,91.7,75.22,16.6,24.16,26.11,27.93,26.06,15.56,9.93,8.74
25 Dec 19,8.8,8.26,8.29,8.24,7.65,9.1,8.39,10.74,9.98,10.86,10.82,13.19,12.62,14.02,12.9,13.39,11.42,11.46,10.93,11.36,9.4,10.53,9.45,8.9
26 Dec 19,8.8,8.93,8.22,8.31,8.06,10.21,12.58,12.58,19.35,90.06,90.09,91.86,90.98,92.43,93.81,91.43,72.26,12.21,11.61,10.84,9.03,9.75,8.94,9.48
27 Dec 19,9.09,10.58,8.66,9.24,8.04,10.19,9.53,11.53,25.38,90.09,91.38,92.92,92.42,93.41,92.2,91.28,75.79,12.86,12.91,12.35,11.38,10.22,9.25,9.1
28 Dec 19,10.04,10.1,10.24,9.28,9.25,10.69,13.44,15.13,22.48,94.35,94.88,94.44,94.76,94.24,96.02,93.67,82.13,19.29,14.3,14.03,11.01,11.85,10.27,11.02
29 Dec 19,9.9,11.34,9.41,10.41,9.82,13.84,16.62,21.25,41.43,93.62,92.99,95.98,94.94,94.76,95.94,96.3,81.44,15.3,13.24,12.16,10.22,10.78,9.79,9.48
30 Dec 19,10.16,9.24,9.39,8.47,8.9,11.76,42.39,19.01,36.7,94.75,100.86,98.17,97.37,98.98,103.48,100.78,81.5,20.28,15.23,12.78,12.38,11.26,10.61,9.9
31 Dec 19,10.89,9.8,9.93,9.5,9.52,11.39,30.71,31.58,21.12,82.43,94.61,95.59,94.78,96.08,97.14,94.92,75.79,12.65,10.98,10.69,9.66,9.76,8.42,8.15
01 Jan 20,9.35,7.86,8.26,7.8,8.54,10.06,12.33,13.6,16.94,93.14,93.77,93.61,93.09,93.4,92.42,92.49,77.26,13.98,13.18,10.97,10.91,10.23,10.21,9.31
02 Jan 20,10.67,9.58,9.4,8.97,10.29,10.59,12.78,17.82,52.98,94.11,94.63,95.29,95.25,97.42,97.66,94.3,84.8,14.46,12.5,13.1,11.79,11.93,10.71,10.69
03 Jan 20,10.18,10.41,9.38,9.37,10.3,11.66,15.58,16.74,25.3,90.53,95.86,96,95.13,94.69,96.57,95.89,91.46,24.12,16.65,15.5,12.57,10.78,11.7,10.37
04 Jan 20,11.09,10.37,10.15,9.59,11,11.19,43.09,20.35,26.23,90.34,97.06,94.96,94.82,94.85,92.74,89.3,74.78,11.9,12.5,10.6,9.89,9.36,9.18,8.58
05 Jan 20,9.42,8.94,9.23,9.18,8.38,9.96,12.71,16.92,17.72,87.16,90.22,95.91,92.24,91.94,91.13,86.8,65.7,10.09,8.99,8.88,7.75,9.83,8.64,9.49
06 Jan 20,1.3,2.05,1.28,1.54,1.86,2.68,1.95,0,0,0,0,0,82.37,93.95,91.09,90.02,69.08,13.02,10.62,12.42,11.3,11.37,9.48,9.11
07 Jan 20,8.58,9.46,8.77,9.35,8.78,10.25,36.34,12.95,13.16,84.98,93.38,93.21,93.15,93.21,93.48,91.11,75.26,11.54,11.68,10.25,9.37,8.94,9.15,8.43
08 Jan 20,8.9,8.61,8.62,8.53,8.23,10.34,11.47,13.22,22.53,90.29,89.72,91.95,94.45,95.16,94.49,91.33,74.72,11.39,10.16,9.61,10.22,9.42,10.43,9.62
09 Jan 20,11.48,9.84,10.23,9.44,9.96,11.45,12.34,15.46,32.83,92.98,95.12,94.82,93.32,94.19,92.58,97.06,91.74,19.53,18.69,14.98,13.39,12.38,10.82,10.7
10 Jan 20,11.34,10.38,11.34,10.43,11.04,12.77,39.5,16.9,34.14,96.36,94.93,96.92,100.16,96.09,91.73,86.88,66.1,11.99,11.22,10.34,9.98,9.96,9.64,9.14
11 Jan 20,10.15,9.35,9.99,8.46,9.07,10.09,11.97,13.37,28.41,90.81,93.9,97.12,94.06,95.59,94.38,94.14,69.68,11.18,10.41,9.65,8.97,9.54,8.68,9.4
12 Jan 20,8.8,9.3,8.73,9.1,8.42,11.02,35.34,20.09,41.86,91.42,94.76,92.83,94.02,95.53,92.58,89.04,75.33,11.97,11.58,10.5,10.2,9.61,10.1,9.31
13 Jan 20,9.74,9.13,8.5,8.9,8.08,9.93,32.72,13.63,33.62,92.84,92.88,94.5,93.03,94.78,93.29,96.85,88.31,18.78,15.19,13.65,13,12.74,10.65,11.19
14 Jan 20,11.5,11.09,10.73,10.78,10.22,12.35,38.07,16.49,28.96,97.14,94.61,97.14,97.85,97.79,94.7,96,84.02,17.13,15.39,13.81,13.01,12.08,12.17,12.2
15 Jan 20,12.88,11.5,10.99,10.46,11.25,11.94,13.26,20.26,40.73,96.52,100.31,99.45,99.13,95.68,93.76,93.95,73.06,13.39,13.13,11.64,12.3,10.41,11.39,10.01
16 Jan 20,10.9,9.73,10.36,9.44,9.94,10.75,13.94,13.59,60.95,91.71,94.94,93.2,92.74,90.1,91.33,92.45,72.84,11.85,11.14,10.26,10.14,9.84,10.88,9.66
17 Jan 20,10.2,9.36,10.64,9.51,10.56,10.96,11.61,13.36,25.46,94.83,97.37,94.91,93.01,91.86,93.87,91.8,73.71,12.81,11.28,11.66,9.82,10.82,10.5,10.7
18 Jan 20,10.67,10.8,10.44,10.75,11.41,12.43,13.83,14.38,40.51,92.01,96.22,98.25,98.94,98.56,95.14,94.74,86.02,15.62,13.69,11.3,11.01,10.47,10.86,9.86
19 Jan 20,11.19,9.94,9.75,8.58,10.02,11.06,14.09,26.47,70.82,92.24,92.79,93.94,97.78,96.06,96.23,91.88,77.09,14.97,14.7,12.18,12.39,11,11.05,10.28
20 Jan 20,11.55,10.46,11.09,9.72,10.69,11.34,25.86,13.79,25.86,80.38,86.14,95.02,92.54,92.52,88.95,86.88,66.22,12.08,10.66,10.72,9.74,9.98,9.4,9.47
21 Jan 20,9.32,9.41,9.33,9.35,9.06,10.54,32.95,12.79,29.64,91.06,93.94,95.14,96.07,95.12,94.41,93.08,71.08,12.4,12.21,11.4,9.7,10.43,9.98,9.9
22 Jan 20,9.51,9.54,9.23,10,9.3,11.86,29.93,72.86,26.12,94.49,98.34,97.01,98.22,96.39,98.49,96.05,81.8,14.07,14.14,11.45,12.18,10.41,11.78,9.94
23 Jan 20,10.69,10.22,10.6,10.15,10.57,10.89,13.1,19,17.19,64.74,89.7,93.27,93.62,92.23,92.73,91.19,72.85,13.04,11.93,12.16,11.22,11.19,10.49,10.42
24 Jan 20,10.07,10.49,9.74,10.08,10.3,10.86,39.44,66.2,32.87,90.24,89.08,92.24,94.16,94.08,89.79,89.56,76.49,13.34,11.97,11.7,10.35,11.65,10.9,10.53
25 Jan 20,10.3,10.81,10.05,10.12,10.85,11.54,38.18,20.21,30.03,91.43,95.3,92.46,93.38,94.56,94.38,92.52,78.54,15.32,14.33,14.16,12.23,11.46,11.43,9.85
26 Jan 20,9.81,9.5,9.73,9.06,9.5,9.48,14.05,21.35,21.76,90.69,93.86,95.88,98.28,96.34,95.25,92.59,76.5,12.73,11.55,10.72,10.7,10.51,9.85,10.07
27 Jan 20,10.65,10.47,10.45,9.17,9.29,11.29,36.44,14.73,45.13,88.49,92.3,94.68,93.59,92.98,91.78,90.74,74.08,11.67,11.67,9.72,9.56,9.13,9.22,8.66
28 Jan 20,9.74,9.67,8.65,9.38,9.41,9.98,48.19,15.1,23.16,95.03,93.53,95.4,96.02,96.62,96.2,79.19,14.26,13.28,13.59,11.47,10.59,11.43,10.86,10.37
29 Jan 20,9.68,10.84,10.26,10.43,10.68,11.21,13.33,17.54,37.75,92.07,96.4,98.66,97.65,96.33,94.77,79.03,15.76,15.45,13.28,12.98,11.36,11.27,9.84,9.95
30 Jan 20,9.12,9.97,9.62,9.82,8.98,11.87,12.78,32.67,13.53,70.46,92.85,89.16,91.79,91.19,94.95,80.59,18.73,17.83,18.02,15.69,14.5,14.76,12.72,13.82
31 Jan 20,10.61,10.56,9.61,10.14,8.86,11.89,13.42,19.81,20.04,96.36,102.23,103.83,99.38,98.06,98.22,85.8,19.06,19.42,16.56,15.15,12.65,13.98,12.68,12.65
01 Feb 20,12.23,12.28,12.31,12.22,13.37,13.45,15.57,15.9,20.1,89.98,99.38,95.58,93.35,92.69,90.79,69.58,11.6,10.25,10.09,9.54,9.78,9.38,8.94,8.82
02 Feb 20,9.39,9.4,8.72,8.2,8.7,10.23,11.45,23.53,22.56,75.81,93.11,91.66,90.76,92.25,91.59,78.35,10.95,11.86,11.33,9.57,8.31,9.78,8.73,8.98
03 Feb 20,8.09,8.48,8.09,8.97,8.05,9.82,10.75,11.04,10.71,10.05,10.14,10.3,9.48,10.09,10.84,11.02,9.9,10.39,9.35,8.62,7.77,8.66,8.09,7.39
04 Feb 20,8.42,7.94,7.95,6.77,7.75,8.56,9.66,10.68,10.86,12.73,11.5,12.54,10.96,12.54,10.37,11.51,10.77,10.34,10.2,10.11,9.06,9.41,8.26,8.62
05 Feb 20,8.38,9.4,7.63,8.29,8.48,9.19,10.12,11.37,19.58,70.48,93.05,94.84,92.98,91.21,91.38,73.1,10.61,11.08,9.84,9.32,8.47,9.76,8.83,9.18
06 Feb 20,8.96,8.72,9.38,9.04,9.01,8.82,10.72,16.53,14.58,87.12,88.34,88.7,87.35,85.18,85.64,71.57,13.98,12.82,13.31,11.42,11.43,11.02,11.31,10.03
07 Feb 20,11.01,10.74,11.22,11.08,10.54,11.6,12.58,13.27,26.54,84.52,89.37,88.96,90.15,92.27,93.23,75.28,12.18,12.09,11.58,11.46,10.51,10.45,9.56,9.18
08 Feb 20,10.06,9.29,10.08,9.68,10.63,11,41.39,13.58,17.21,80.01,93.14,95.92,96.92,94.84,94.32,79.56,13.39,13.33,11.78,11.19,10.03,10.11,9.38,9.18
09 Feb 20,9.46,8.73,8.79,9.42,10.11,10.66,12.59,27.93,15.68,69.98,95.34,96.63,95.86,96.31,95.41,76.49,12.8,12.56,11.87,10.75,10.53,10.77,10.32,9.77
10 Feb 20,9.74,9.7,9.18,10.26,9.87,10.99,10.29,12.88,13.47,15.04,13.68,14.5,14.31,15.57,13.22,13.78,12.02,13.05,11.42,10.82,9.78,10.25,8.84,9.98
11 Feb 20,9.25,9.96,8.61,9.22,9.49,10.54,10.94,11.19,12.85,12.97,12.3,13.48,14.57,14.12,12.06,11.9,11.77,11.34,10,9.02,9.5,9,8.46,8.69
12 Feb 20,9.73,8.41,8.7,8.25,8.63,9.99,12.16,12.82,17.65,73.2,92.65,90.46,89.89,89.13,90.23,77.98,12.98,12.57,11.74,9.99,10.72,10.28,10.51,9.21
13 Feb 20,10.54,9.29,10.11,9.18,9.92,10.2,11.78,12.79,16.38,74.02,87.87,88.98,91.57,92.38,88.86,76.29,16.36,15.99,14.84,12.68,13.52,11.54,11.39,9.96
14 Feb 20,11.88,9.9,11.08,9.73,10.66,11.87,12.82,15.45,21.58,75.58,92.97,92.65,93.02,92.92,87.51,69.94,13.03,11.41,10.83,10.74,11.11,10.55,9.44,9.46
15 Feb 20,9.69,9.8,9.63,9.88,9.43,10.34,10.69,12.46,19.73,55.08,86.2,86.85,90.58,87.48,87.74,72.5,10.76,10.03,9.48,8.79,8.83,9.12,7.8,7.91
16 Feb 20,8.95,8.62,9.14,8.83,10.14,8.99,10.71,16.93,15.3,53.26,90.86,89.34,93.59,95.22,94.02,78.14,12,12.48,10.46,10.63,9.11,9.38,8.24,8.86
17 Feb 20,8.25,9.35,8.33,8.51,8.92,9.02,10.13,11.6,13.66,13.19,14.22,14.12,15.54,14.37,15.45,12.97,12.37,10.86,10.99,9.88,9.94,8.99,8.58,8.32
18 Feb 20,8.88,8.58,8.37,9.38,8.85,10.14,9.77,11.45,11.52,12.18,12.05,11.54,10.73,12.13,10.87,11.45,9.58,10.69,9.91,9.45,9.07,8.96,8.61,7.98
19 Feb 20,8.56,7.98,8.42,7.8,8.82,8.3,10.85,11.94,17.88,81.02,91.49,89.7,94.47,85.65,84.86,67.38,10.66,10.41,9.88,8.58,8.91,9.42,8.16,9.11
20 Feb 20,8.35,9.36,8.54,9.14,8.22,9.03,10.25,12.69,13.97,74.04,85.84,87.09,92.52,89.37,87.26,71.78,11.38,9.6,10.76,9.25,9.99,8.82,9.29,8.55
21 Feb 20,9.65,9.3,9.42,9.06,9.08,8.98,11.08,29.33,74.51,84.76,88.93,86.63,89.31,88.54,87.64,69.81,10.54,10.53,9.68,9.6,8.42,9.58,8.66,8.65
22 Feb 20,9.06,8.83,8.86,8.66,8.73,7.95,10.73,17.99,73.08,73.3,92.27,96.09,94.35,95.08,95.37,74.42,12.25,10.34,10.09,9.07,8.82,8.34,8.38,8.01
23 Feb 20,8.97,8.32,8.22,7.74,7.91,7.37,22.65,70.57,19.77,71.84,91.3,91.94,90.12,92.67,92.46,79.97,15.93,12.06,11.18,10.23,11.08,9.56,10.23,8.79
24 Feb 20,9.4,8.97,9.46,8.99,9.3,8.81,10.5,43,15.59,13.66,13.17,14.44,12.92,15.55,12.78,12.34,9.88,9.93,10.05,9.58,9.46,8.82,7.88,7.92
25 Feb 20,9.01,8.43,9.28,8.36,8.83,9.06,10.73,11.13,12.07,12.95,13.75,12.78,14.02,12.9,12.55,11.86,10.9,10.28,9.77,9.09,8.76,9.35,7.95,8.77
26 Feb 20,8.59,9.01,8.14,9.23,7.63,9.32,9.86,18.35,14.62,78.85,91.46,88.52,91.1,89.73,90.14,73.39,10.58,9.62,9.66,8.91,8.28,8.53,7.69,7.51
27 Feb 20,8.34,7.77,7.39,6.99,6.87,7.9,8.6,12.53,18.5,89.1,86.82,85.49,86.49,88.04,85.34,70.26,9.19,9.18,8.62,8.31,8.25,8.43,8.42,7.7
28 Feb 20,8.73,7.7,8.59,7.95,8.44,8.04,9.31,53.73,55.86,77.64,88.6,87.51,88.33,89.57,93.69,72.26,11.65,11.71,9.65,9.14,8.54,9.46,7.34,8.23
29 Feb 20,8.03,7.82,8.47,7.67,7.92,8.78,9.94,10.15,12.92,68.61,90.18,91.75,93,92.93,92.4,74.03,12.49,11.6,9.3,9.77,9.19,9.91,8.27,9.14
01 Mar 20,8.53,9.02,8.71,8.37,8.06,8.47,28.35,12.36,27.7,90.23,92.65,93.95,97.57,98.65,95.98,86.25,16.39,12.09,11.56,10.41,9.98,9.1,8.81,8.57
02 Mar 20,9.06,8.71,8.68,7.81,7.74,8.2,8.6,13.72,12.74,11.18,11.67,12.37,11.29,11.82,10.49,9.88,10.36,8.29,8.27,7.69,7.42,7.21,6.78,7.25
03 Mar 20,6.78,7.01,6.54,7.17,6.15,8,7.49,8.02,8.5,8.72,7.78,8.64,8.71,9.16,8.38,8.03,7.65,8.44,8.16,6.86,7.46,6.97,7.1,6.52
04 Mar 20,7.4,7.08,7.25,5.81,6.75,7.95,7.84,8.62,9.43,10.36,10.79,11.15,11.13,10.42,9.59,11.18,9.73,9.88,8.4,8.65,7.96,9.68,7.46,8.46
05 Mar 20,7.78,8.67,8.03,8.6,7.69,9.18,11.05,12.58,11.62,11.26,12.09,11.63,12.1,11.86,11.36,10.22,9.18,8.19,9.17,7.13,8.82,7.51,8.22,7.47
06 Mar 20,8.54,6.9,8.18,7.25,7.55,7.57,9.78,20.55,15.39,60.5,87.8,88.63,89.35,86.16,87.2,67,11.29,8.69,8.83,6.96,7.78,7.54,6.82,7.33
07 Mar 20,7.81,7.36,7.31,7.92,6.97,9.09,9.59,11.66,20.08,74.91,91.07,94.84,90.93,91.38,88.09,70.93,10.16,9.62,8.38,7.93,8.82,9.18,8.53,7.97
08 Mar 20,8.86,7.79,8.88,7.86,9.32,8.78,10.97,18.38,12.51,81.01,92.51,93.63,93.19,92.39,91.54,73.68,9.36,9.56,8.87,8.13,7.54,8.94,7.46,8.24
09 Mar 20,7.55,7.54,7.91,6.72,7.74,7.77,42.41,11.63,14.54,74.18,89.72,91.9,93.25,94.61,92.74,73.85,10.62,8.62,8.35,7.98,8.26,7.82,7.61,6.82
10 Mar 20,8.1,7.06,7.73,6.74,6.54,7.39,7.31,9.8,10.97,12.48,9.38,9.74,9.78,11.18,10.72,10.43,10.46,9.3,10.12,9.03,9.02,8.01,8.04,7.17
11 Mar 20,7.98,7.24,7.59,7.54,7.09,7.36,7.9,10.44,10.32,10.72,11.43,12.06,13.75,13.58,14.27,12.53,13.39,11.3,11.41,9.88,10.13,10.37,9.08,9.19
12 Mar 20,9.01,9.02,7.59,8.34,7.67,10.23,10.41,11.34,11.82,13.04,14,14.36,14.75,13.27,14.11,12.6,13.18,13.23,13.06,12.85,10.6,10.55,8.94,9.34
13 Mar 20,8.89,9.73,7.8,8.15,7.91,9.45,11.26,30.03,22.5,75.68,90.38,90.26,91.87,88.77,88.49,69.83,9.29,8.65,7.79,7.63,7.66,7.76,7.68,7.39
14 Mar 20,8.08,7.04,7.7,6.86,7.89,7.73,8.71,18.91,12.18,57.68,89.65,90.14,91.7,90.09,87.79,72.8,9.02,8.29,7.73,8.32,7.77,8.26,7.99,7.9
15 Mar 20,8.66,7.5,7.85,7.11,7.86,8.1,9.09,16.99,32.93,75.91,91.52,91.09,92.66,93.71,93.3,76.92,10.88,9.32,9.13,7.52,9.02,7.56,7.62,7.06
16 Mar 20,7.53,7.82,7.41,8.02,9.13,8.7,7.72,9.42,10.1,11.39,11.98,13.13,12.28,11.14,11.05,11.22,10.59,10.14,9.65,8.24,9.3,8.06,7.47,7.05
17 Mar 20,8.42,6.82,7.62,7.12,6.42,8.04,8.09,10.3,9.9,11.91,10.52,12.91,12.5,12.38,12.89,11.94,12.87,10.69,11.21,9.4,10.28,8.9,8.87,8.22
18 Mar 20,8.49,8.43,8.4,8.95,7.76,9.09,9.05,10.58,11.21,13.76,12.2,14.8,13.66,15.28,13.92,13.14,10.12,10.02,9.69,8.62,9.39,8.33,8.77,7.69
19 Mar 20,8.53,7.13,8.33,7.92,7.77,9.08,9.86,10.67,11.79,13.74,13.03,14.76,12.91,12.77,11.36,12.37,10.89,9.72,9.08,7.7,7.7,6.83,7.36,6.31
20 Mar 20,6.99,6,6.78,5.7,6.21,6.57,7.38,8.93,9.81,10.86,9.42,11.7,9.04,11.29,8.94,9.41,7.01,7.25,5.72,5.74,5.38,5.98,5.5,5.36
21 Mar 20,5.94,5.17,5.89,5.56,5.62,5,5.25,5.61,5.93,7.34,6.25,8.54,7.02,7.84,6.7,7.7,6.07,7.29,5.58,5.87,5.6,5.54,5.63,4.93
22 Mar 20,5.38,4.97,5.42,5.05,4.77,5.01,4.49,6.32,5.66,6.55,6.06,6.74,6.46,7.39,6.62,7.35,5.67,5.69,6.06,5.15,5.29,5.34,5.29,4.37
23 Mar 20,5.3,4.98,5.01,5.4,4.38,6.38,6.94,9.34,7.39,7.4,7.9,8.24,8.68,6.49,5.23,5.56,4.39,3.99,3.37,3.13,3.02,3.1,2.9,2.78
24 Mar 20,2.71,3.06,2.82,2.75,2.62,3.83,3.84,5.23,6.32,6.45,5.88,6.14,6.68,5.93,4.55,4.72,3.91,3.56,2.77,2.78,2.81,2.55,2.37,2.55
25 Mar 20,2.44,2.9,2.49,2.86,2.73,3.37,3.46,5.08,5.73,6.69,7.04,7.45,6.95,7.11,5.49,5.18,4.52,3.87,3,3.06,2.69,2.74,2.83,2.81
26 Mar 20,2.58,2.86,2.9,2.65,2.66,3.75,4.98,6.12,6.22,6.33,7.95,7.83,6.89,6.3,4.76,4.46,4.52,3.39,2.44,1.94,2.54,2.59,2.42,2.23
27 Mar 20,2.09,2.2,1.87,1.98,2.12,3.2,4.79,6.1,6.14,6.89,7.31,7.87,7.99,7.75,6.25,5.09,4.75,3.53,2.7,2.87,2.84,2.3,2.37,2.36
28 Mar 20,2.66,2.68,2.33,2.08,2.46,2.11,2.41,2.99,3.33,3.26,4.13,4.1,4.02,4.29,4.36,3.84,3.81,3.64,3.21,3.44,3.14,3.03,2.89,2.86
29 Mar 20,2.78,3.04,3.09,2.94,3.05,3.01,2.78,3.22,3.4,3.32,4.18,4.26,3.93,3.78,3.86,3.67,3.33,3.17,2.55,2.73,2.86,2.61,2.47,2.54
30 Mar 20,2.49,2.71,2.77,2.39,2.08,3.07,3.54,4.26,6.13,5.31,5.86,5.86,5.32,6.16,4.8,4.68,4.23,3.21,2.48,2.56,2.58,2.37,2.37,2.06
31 Mar 20,2.26,2.63,2.4,2.01,2.12,3.03,3.26,4.65,6.19,5.43,5.76,5.98,5.68,5.74,4.46,4.63,4.03,3.63,2.5,2.81,2.55,2.24,1.99,2.21
01 Apr 20,1.99,1.9,2.29,2.07,1.78,2.77,2.79,4.69,5.12,5.71,6.89,6.1,5.88,6.9,5.27,4.58,4.06,3.34,1.97,2.7,3.05,2.83,2.66,2.63
02 Apr 20,2.89,2.67,2.81,2.9,2.5,3.54,3.92,5.04,5.71,5.33,5.52,5.75,5.5,5.25,4.02,3.77,4.2,2.35,2.14,2.11,2.13,2.04,2.02,1.68
03 Apr 20,1.81,1.56,2.07,1.84,1.8,2.94,3.25,3.53,4.82,6.09,5.98,5.86,5.66,5.38,4.52,4.32,2.8,2.31,1.93,2.25,2.41,1.78,2.08,2.17
04 Apr 20,1.84,1.92,1.72,2.07,1.89,1.45,1.77,2.26,2.7,3.43,3.55,2.79,2.98,3.03,2.9,3.36,2.19,1.86,2.02,1.77,1.99,1.7,1.82,1.2
05 Apr 20,1.68,1.19,1.68,1.17,1.61,1.21,1.31,1.97,1.92,3.02,2.85,3.24,3.1,3.61,3.3,2.97,2.85,1.87,1.45,1.89,2.01,1.7,1.84,1.71
06 Apr 20,1.34,2.05,1.41,1.8,1.41,1.67,2.5,3.44,2.71,3.46,3.97,3.34,3.46,4.23,3.98,2.65,2.8,2.94,1.74,2.01,1.75,1.86,1.67,1.73
07 Apr 20,1.77,1.55,1.95,1.75,1.49,1.75,2.02,3.02,3.09,4,5.23,5,4.75,5.62,4.8,2.9,3.14,2.41,1.67,2.03,2.01,1.84,1.95,1.4
08 Apr 20,1.7,2.22,1.86,1.84,1.85,1.8,2.75,3.88,4.01,4.18,5.28,5.62,5.92,5.45,5.02,3.49,3.22,2.59,1.81,2.13,1.61,2.09,1.7,1.32
09 Apr 20,1.91,1.68,1.73,1.79,1.37,1.53,2.66,3.32,3.82,4.66,5.46,4.56,5.15,4.79,4.63,3.9,3.81,2.94,1.95,2.17,2.06,1.84,2.08,1.98
10 Apr 20,1.63,2.02,1.63,1.89,1.57,1.71,1.69,2.06,2.1,2.38,2.03,2.34,2.68,2.88,2.62,2.34,2.42,2.32,2.26,2.46,1.97,1.72,1.96,1.73
11 Apr 20,2.15,1.99,1.89,2.03,1.87,1.66,1.82,1.96,2.33,2.05,2.06,2.11,2.2,2.39,2.41,2.09,1.88,1.97,1.71,2.16,2.07,1.7,1.74,1.63
12 Apr 20,1.91,1.9,1.81,1.9,1.58,1.62,1.65,2,1.83,1.98,1.99,1.66,1.86,2.26,1.96,2.12,2.09,1.88,1.82,1.81,1.72,1.79,2.03,1.39
13 Apr 20,1.66,2.08,1.5,1.7,1.63,1.46,1.34,1.9,2.01,2.02,2.18,2.32,2.43,2.53,2.41,2.43,2.21,2.08,2.16,1.78,1.92,1.82,1.86,1.31
14 Apr 20,1.92,2.09,1.74,1.65,1.68,1.37,2.72,2.94,3.06,3.48,3.79,4.32,4.6,4.22,3.52,2.41,2.81,2.46,2.04,1.77,1.74,1.75,1.72,1.83
15 Apr 20,1.91,1.77,1.51,1.69,1.94,1.9,2.42,3.56,3.27,4.43,4.7,4.39,5.5,6.61,4.9,3.54,3.11,2.48,2.38,2.01,2.07,2.21,2.03,1.78
16 Apr 20,2.29,1.86,1.96,1.68,1.74,1.61,3.42,4.1,5.73,5.39,5.97,5.5,6.01,5.74,5.19,3.6,3.92,2.7,1.74,1.61,1.74,1.69,1.71,1.7
17 Apr 20,2.02,1.58,1.59,1.66,1.48,1.48,2.05,2.34,3.1,4.31,4.67,4.68,5.36,5.97,5.47,3.83,3.31,2.34,1.82,2.06,1.99,1.59,1.78,1.7
18 Apr 20,1.64,1.61,1.96,1.52,1.56,1.35,1.56,2.16,2.04,2.36,2.22,2.33,2.49,2.8,2.93,3.05,2.1,1.89,1.94,2.09,1.79,1.8,1.46,1.55
19 Apr 20,2.06,1.78,1.6,1.42,1.66,1.46,1.57,1.98,1.95,3.03,2.78,2.83,3.06,3.31,3.42,2.97,2.65,2.01,2.03,2.1,2.02,1.64,1.76,1.69
20 Apr 20,2.29,1.86,1.67,1.49,1.68,1.77,2.48,2.99,3.35,4.16,4.27,4.26,5.14,4.78,5.02,3.66,3.27,2.46,2.19,1.86,1.65,1.77,1.44,1.49
21 Apr 20,1.64,1.58,1.62,1.51,1.3,1.4,2.26,2.48,3.18,4.04,3.39,3.62,4.15,4.02,3.85,2.78,2.84,2.1,2.09,1.69,2.22,1.77,1.71,1.58
22 Apr 20,2.37,2.08,1.78,1.71,1.62,1.86,2.93,3.09,3.01,4.26,4.32,5.53,5.79,5.79,5.57,4.11,3.63,2.78,2.14,1.93,1.78,1.6,1.78,1.66
23 Apr 20,2.08,1.51,1.46,1.48,1.42,1.6,2.37,2.95,3.3,4.54,4.72,4.63,4.42,5.23,4.56,3.29,2.8,2.14,2.05,2.06,2.13,2.15,1.73,1.94
24 Apr 20,2.09,2.05,1.91,1.72,1.74,1.75,2.26,3.56,4.03,5.09,4.74,5.5,6.01,5.96,4.36,3.62,3.61,2.91,2.13,1.95,1.78,1.66,1.58,1.54
25 Apr 20,1.81,1.53,1.69,1.73,1.3,1.62,1.4,2.13,1.84,2.34,2.98,2.86,2.5,2.86,2.78,2.49,2.42,2.24,1.97,2.16,2.02,1.9,1.65,1.86
26 Apr 20,2.08,1.91,1.99,1.78,1.7,1.51,1.63,1.97,2.34,2.58,2.33,3.54,3.12,3.39,3.14,3.61,2.82,2.03,2.32,1.65,1.53,2.06,1.6,1.5
27 Apr 20,1.57,1.5,1.47,1.45,1.62,1.45,1.91,2.78,3.17,4.08,4.66,4.66,4.66,4.29,4.56,2.95,2.37,2.27,2.31,2.24,1.84,2.18,1.81,1.63
28 Apr 20,2.01,1.63,1.81,1.98,1.62,2.06,2.09,3.02,3.4,4.26,4.59,5.25,5.19,4.92,4.75,3.72,3.75,2.59,2.19,1.84,2.23,2.41,2.26,2.3
29 Apr 20,2.38,1.86,2.13,2.29,2.25,2.35,2.73,3.22,3.05,3.47,5.28,5.02,4.7,4.63,5.04,3.39,2.7,2.46,1.89,1.72,1.66,1.97,1.74,1.72
30 Apr 20,2.04,1.67,1.67,1.58,1.83,1.68,1.94,2.59,2.82,3.46,4.06,4.36,3.7,3.28,3.3,2.38,2.89,2.7,1.81,1.69,1.27,1.22,1.02,1.48
01 May 20,1.36,1.42,1.64,0.91,1.17,1.26,1.65,2.91,2.99,4.7,4.61,4.45,4.02,4.42,3.81,2.62,2.67,2.06,1.55,1.44,1.5,1.3,1.3,1.4
02 May 20,1.12,1.29,1.23,0.95,1.19,1.34,0.98,1.38,1.52,1.63,2.62,3.04,3.1,3.31,2.36,2.02,2.45,1.82,1.78,1.42,1.3,1.3,1.49,1.38
03 May 20,1.5,1.42,1.21,1.34,1.62,1.16,1.29,1.5,1.42,1.48,1.99,2.32,2.08,2.14,1.95,1.33,2.19,1.68,1.5,1.66,1.44,1.04,1.6,1.5
04 May 20,1.48,1.64,1.35,1.58,1.58,1.3,1.96,2.81,2.52,3.17,3.82,3.71,4.32,3.14,3.14,2.64,2.87,2.57,1.79,1.62,1.32,1.84,1.67,1.33
05 May 20,1.65,1.75,1.42,1.7,1.84,1.26,2.01,2.57,2.46,3.15,4.34,4.03,4.24,4.5,4.95,3.5,3.72,2.74,1.77,1.48,1.53,1.62,1.46,1.47
06 May 20,1.56,1.73,1.56,1.48,1.65,1.37,1.94,2.84,2.75,3.97,5.49,5.02,5.14,5.16,5.2,3.6,4.14,2.73,1.88,1.7,2.18,1.99,1.72,1.75
07 May 20,1.84,1.69,1.55,1.69,1.68,1.65,2.31,2.5,3.65,3.36,4.38,4.39,5.59,5.16,4.93,4.51,5.47,4.05,2.38,1.7,1.86,1.61,1.81,1.43
08 May 20,1.56,1.59,1.74,1.45,1.5,1.4,1.92,2.94,3.42,3.61,4,4.2,4.95,4.95,5.9,3.67,3.37,1.74,1.96,1.74,1.62,1.6,1.89,1.72
09 May 20,1.68,1.78,1.9,1.66,1.83,1.58,1.67,1.66,1.89,1.92,2.18,2.2,2.4,2.08,2.18,2.06,2.71,1.79,1.63,1.39,1.84,1.61,1.59,1.5
10 May 20,1.58,1.26,1.47,1.21,1.58,1.43,1.05,1.56,1.53,1.49,1.98,1.71,1.71,1.78,1.78,1.45,2.14,1.57,1.47,1.59,1.41,1.43,2.03,1.64
11 May 20,1.31,1.75,1.36,1.18,1.61,1.09,2.15,2.77,2.58,3.71,4.35,3.98,5.16,4.22,4.06,3.87,3.06,2.46,1.69,1.36,1.7,1.9,1.69,1.54
12 May 20,1.45,1.69,1.49,1.33,1.42,1.58,1.91,2.32,2.66,3.65,3.7,7.74,6.39,4.37,3.24,2.65,2.97,2.44,1.66,1.78,1.27,1.98,1.81,1.34
13 May 20,1.76,1.33,1.66,1.43,1.72,1.1,2.1,2.74,2.64,4.7,4.5,5.17,5.49,5.21,5.26,4.08,3.08,1.85,1.71,1.52,1.28,1.51,1.58,1.38
14 May 20,1.63,1.33,1.04,1.57,1.32,1.49,1.99,2.66,3.07,4.93,4.5,4.71,4.58,6.03,15.02,13.45,3.86,1.84,1.49,1.84,2.05,1.88,2.01,1.81
15 May 20,1.68,1.68,1.58,1.69,1.39,1.41,2.3,3.28,3.57,5.12,4.94,4.89,4.82,5.14,4.03,3.44,3.33,2.32,1.92,1.81,1.9,1.6,1.65,1.43
16 May 20,1.3,1.44,1.05,1.64,1.18,1.46,1.11,1.4,1.33,2.26,2.06,2.9,2.74,2.49,2.07,2.73,2.49,1.64,1.71,1.73,1.71,1.38,1.51,1.37
17 May 20,1.45,1.42,1.25,1.41,1.11,1.1,1.44,1.16,1.47,1.14,1.68,1.62,2.03,2.06,1.78,1.85,2.09,1.55,1.52,1.27,1.35,1.72,1.59,1.46
18 May 20,1.35,1.37,1.21,1.54,1.25,1.19,1.86,2.68,3.37,4.32,4.68,4.45,4.38,4.9,4.52,3.78,3.23,2.57,1.9,1.84,1.74,1.91,1.3,1.63
19 May 20,1.43,1.57,1.55,1.26,1.38,1.39,2.05,2.26,2.74,3.61,3.24,3.7,3.72,3.99,3.71,3.12,2.13,1.85,1.95,1.34,1.32,1.81,1.62,1.51
20 May 20,1.69,1.64,1.21,1.83,1.68,1.51,2.54,3.04,3.07,4.24,4.03,4.54,4.29,4.14,3.54,2.8,2.98,2.07,1.46,1.33,1.38,1.27,1.49,1.41
21 May 20,1.25,1.24,1.26,1.47,1.27,1.16,1.78,2.07,2.72,3.86,3.87,4.28,4.18,3.73,3.5,2.39,2.4,2,1.46,1.1,1.46,1.64,1.43,1.6
22 May 20,1.5,1.24,1.4,1.81,1.33,1.41,2.17,2.37,3.44,4.64,4.01,3.87,4.26,4.2,4.55,2.84,2.26,1.69,1.69,1.53,1.62,1.56,1.14,1.26
23 May 20,1.61,1.37,1.31,1.37,1.55,1.17,1.31,1.27,1.75,1.55,1.9,2.1,1.99,1.75,1.93,1.82,1.87,1.71,1.15,1.36,1.76,2.13,1.46,1.24
24 May 20,1.47,1.46,1.56,1.56,1.46,1.49,1.18,1.4,1.63,1.85,1.5,1.9,2.23,1.82,2.19,1.88,1.82,1.93,1.62,1.62,1.85,1.79,1.39,1.61
25 May 20,1.28,1.34,1.68,1.26,1.47,0.95,2.16,2.78,2.68,3.69,4.05,3.8,4.02,3.66,3.58,2.66,2.89,1.93,1.46,1.56,1.98,1.41,1.79,1.4
26 May 20,1.63,1.55,1.36,1.6,1.33,1.49,1.97,2.02,2.12,3.63,4.64,4.5,4.74,4.05,3.95,2.9,2.46,2.29,1.53,1.26,1.62,1.78,1.79,1.55
27 May 20,1.47,1.41,1.7,1.28,1.53,1.41,2.06,2.74,2.91,3.81,4.39,4.68,4.59,4.3,3.79,3.28,3.15,1.82,1.75,1.39,1.6,1.89,1.64,1.78
28 May 20,1.65,1.52,1.88,1.49,1.71,1.43,2.06,2.43,2.87,3.18,3.22,2.51,2.42,2.37,2.32,2.3,2.7,1.9,1.74,1.53,1.28,1.89,1.33,1.64
29 May 20,1.54,1.32,1.79,1.72,1.32,1.25,1.89,2.89,3.45,4.3,4.87,4.6,4.37,4.54,5.21,3.6,3.1,2.43,2.13,1.79,2.32,2.27,2.12,2.3
30 May 20,2.11,2.02,2.54,2.04,1.87,1.8,1.98,2.07,2.62,2.18,2.42,2.43,2.89,2.7,2.56,2.37,2.44,2.16,2.16,2.09,2.34,2.14,1.92,2.45
31 May 20,2.32,2.03,2.58,2.15,1.8,2.06,1.92,1.92,2.41,2.31,2.25,2.67,2.8,2.39,2.86,2.34,2.18,1.92,1.89,2.27,2.32,2.35,1.97,2.27
01 Jun 20,2.22,2.24,2.16,2.14,1.68,2.12,3.15,3.06,2.48,3.37,3.38,3.7,3.26,3.23,2.94,2.2,2.25,1.12,1.53,1.48,1.46,1.62,1.19,1.67
02 Jun 20,1.64,1.34,1.45,1.29,1.5,1.26,1.59,2.43,3.36,4.24,4.02,3.86,3.95,4.29,3.35,2.1,2.21,1.73,1.56,1.71,1.7,1.9,1.65,1.8
03 Jun 20,1.61,1.51,1.56,1.82,1.64,1.41,2.09,2.9,2.52,3.02,3.36,4.19,3.79,4.85,4.58,3.15,3.25,1.34,1.62,1.5,1.31,1.62,1.63,1.35
04 Jun 20,1.46,1.54,1.43,1.72,1.25,1.78,1.89,2.7,3.62,3.55,3.5,3.71,3.53,4.18,3.4,2.57,2.86,1.54,1.16,1.58,1.52,1.61,1.51,1.33
05 Jun 20,1.1,1.7,1.25,1.49,1.04,1.08,2.1,2.76,2.88,3.08,3.31,3.94,4.99,3.99,4.58,3.67,3.08,1.78,1.46,1.8,1.46,1.5,1.8,1.47
06 Jun 20,1.72,1.76,1.25,1.63,1.57,1.56,1.14,1.27,1.75,1.26,1.4,1.5,1.93,1.65,2,1.52,1.59,1.7,1.7,1.61,1.57,1.59,1.69,1.75
07 Jun 20,1.38,1.55,1.74,1.74,1.44,1.28,1.21,1.62,1.73,1.5,1.5,1.82,1.57,2.36,1.94,1.66,1.88,1.49,1.63,1.44,1.69,1.71,1.47,1.48
08 Jun 20,1.34,1.78,1.34,1.54,1.26,1.57,1.32,1.6,1.42,1.21,1.78,1.67,1.45,1.82,1.75,1.81,2.02,2.28,1.55,1.62,1.7,1.31,1.8,1.45
09 Jun 20,1.62,1.62,1.38,1.52,1.2,1.52,1.56,2.43,2.41,3.8,4.01,3.97,3.58,4.02,3.98,2.27,1.75,1.66,1.41,1.32,1.45,1.16,1.51,1.35
10 Jun 20,1.34,1.14,1.67,1.25,1.25,1.37,1.94,3.17,3.08,3.26,3.54,4.43,4.1,4.6,3.91,2.63,3.23,1.7,1.42,1.54,1.36,1.62,1.39,1.54
11 Jun 20,1.43,1.3,1.62,1.23,1.46,1.25,2.14,2.74,2.48,2.89,3.13,3.13,3.77,3.38,3.42,1.96,2.24,1.43,1.36,1.62,1.55,1.28,1.56,1.14
12 Jun 20,1.81,1.35,1.52,1.12,1.46,1.25,2.06,3.6,4.09,4.26,3.95,4.3,4.22,4.86,4.56,3.15,3.05,1.65,1.92,1.84,1.41,1.71,1.58,1.49
13 Jun 20,1.58,1.39,1.58,1.5,1.4,1.23,1.56,1.41,1.87,1.82,1.73,1.71,2.29,2,1.87,2.08,1.99,1.77,1.61,2.07,1.99,1.76,1.5,1.45
14 Jun 20,1.8,1.71,1.61,1.39,1.42,1.46,1.53,1.41,1.91,1.94,1.94,1.5,2.08,1.9,2,1.76,1.98,1.74,1.9,1.42,1.39,1.63,1.34,1.3
15 Jun 20,1.65,1.61,1.46,1.51,1.34,1.42,2.51,3.77,3.87,5.11,5.5,5.13,5.66,4.67,5.07,3.75,3.23,2.16,2.22,2.08,2.14,2.12,2.08,1.79
16 Jun 20,2.17,1.93,2,1.82,1.94,1.61,3.42,3.48,3.72,4.49,4.34,4.26,4.44,4.25,3.97,2.81,3.58,1.6,1.68,1.49,1.68,1.51,1.66,1.58
17 Jun 20,1.55,1.58,1.48,0.98,1.57,1.31,2.58,3.92,3.78,4.74,5.01,4.87,5.13,5.22,5.37,3.45,2.93,2.38,2.63,2.83,1.8,1.88,1.52,1.65
18 Jun 20,1.78,1.6,1.77,1.35,1.74,1.1,2.38,3.93,4.18,4.73,5.09,4.85,5.3,4.93,4.38,4.11,2.89,2.48,2.68,1.96,2.12,2.32,2.09,1.69
19 Jun 20,2.29,1.9,1.9,1.99,1.82,1.58,3.54,4.38,4.03,5.18,5.52,5.64,6.34,5.56,5.23,3.32,2.87,2.05,2.14,2.08,2.12,1.8,1.62,1.62
20 Jun 20,2.13,1.89,1.56,1.54,1.94,1.62,1.54,1.53,2,2.18,1.95,2.08,2.41,2.35,2.11,2.02,2.37,1.88,1.76,1.59,1.73,1.58,1.74,1.31
21 Jun 20,1.66,1.41,1.54,1.44,1.18,1.56,1.25,1.53,1.58,1.77,1.88,1.88,1.72,2.19,1.97,1.91,1.73,1.38,1.3,1.5,1.42,1.38,1.61,1.44
22 Jun 20,1.69,1.51,1.33,1.55,1.27,1.33,2.88,3.75,3.64,4.86,5.06,5.15,5.49,5.29,5.24,3.2,3.37,1.77,1.73,1.84,1.73,1.85,1.78,2.03
23 Jun 20,1.84,2.03,1.51,1.49,1.71,2.05,2.2,3.38,3.54,4.94,5.41,5.58,5.54,5.48,4.74,3.09,2.97,2.72,2.09,1.95,2.1,2.02,1.81,1.5
24 Jun 20,2.14,1.79,1.88,1.92,1.74,1.86,3.37,3.93,3.8,5.11,5.28,5.91,5.61,5.57,5.5,3.38,2.71,2.42,2.47,1.94,1.69,1.92,1.62,1.94
25 Jun 20,1.78,1.73,1.78,1.7,1.59,1.79,2.29,3.34,3.32,3.1,2.97,3.91,3.89,4.1,3.61,2.46,2.3,2.19,1.74,1.74,2.02,1.78,1.33,1.81
26 Jun 20,1.69,1.37,1.37,1.34,1.42,1.56,1.85,3.07,3.28,3.28,3.48,3.45,3.62,3.73,3.74,2.21,2.1,2.03,1.8,1.65,1.51,1.62,1.45,1.7
27 Jun 20,1.22,1.38,1.49,1.28,1.18,1.27,1.45,1.29,1.68,1.26,1.59,1.85,2.02,1.85,1.94,1.67,1.86,1.76,1.61,1.65,1.78,1.45,1.08,1.83
28 Jun 20,1.23,1.34,1.25,1.06,1.11,1.65,0.97,1.15,1.47,1.59,1.14,2.07,1.79,1.86,1.69,1.56,1.25,1.78,1.38,1.34,1.28,1.95,1.3,1.41
29 Jun 20,1.42,1.26,1.23,1.4,0.85,1.22,1.73,3.12,2.54,4.23,4.23,4.16,4.11,4.22,4.46,2.85,2.41,1.83,1.89,1.3,1.43,1.44,1.32,1.32
30 Jun 20,1.25,1.07,1.21,1.23,0.87,1.39,1.62,2.13,2.17,2.42,2.93,2.9,3.18,3.28,3.49,1.94,2.04,1.69,1.6,1.66,1.34,1.29,1.38,1.46
01 Jul 20,1.55,1.09,1.46,1.42,1.34,1.28,1.94,2.51,2.84,3.02,3.52,3.73,4.39,4.14,3.76,2.9,2.92,2.4,2.11,1.89,1.76,1.71,2.02,2.19
02 Jul 20,1.66,1.86,1.8,1.78,1.81,1.78,1.86,2.66,2.91,3.48,3.64,4.49,4.36,3.62,3.74,3.26,2.38,2.3,1.86,1.72,1.98,1.71,1.74,1.56
03 Jul 20,1.87,1.77,1.59,1.65,1.41,1.74,2.45,2.67,2.34,2.53,2.84,3.05,3.09,2.96,3.13,1.87,2.47,1.5,2.02,1.7,1.82,1.75,1.65,1.68
04 Jul 20,1.5,1.74,1.42,1.53,1.34,1.54,1.26,1.59,1.61,1.83,1.65,1.98,2.08,1.85,1.99,2.03,2.29,1.65,1.96,1.77,1.58,1.82,1.85,1.63
05 Jul 20,1.83,1.51,1.67,1.76,1.54,1.59,1.53,1.7,1.92,1.63,2.12,1.94,1.82,2.09,2.25,1.73,2.24,1.96,2.1,2.89,2.09,1.77,1.87,1.75
06 Jul 20,1.69,1.63,1.52,1.59,1.59,1.6,2.77,3.42,3.36,4.42,4.46,4.79,4.78,4.64,4.6,2.75,3.06,1.74,2.19,2.4,1.68,1.59,1.92,1.44
07 Jul 20,1.82,1.43,1.76,1.48,1.47,1.66,2.26,3.73,5.62,5.35,6.69,6.7,6.81,6.38,5.86,2.87,3.04,1.75,1.45,1.46,1.12,1.33,1.58,1.52
08 Jul 20,1.27,1.67,1.1,1,1.73,1.03,1.98,2.46,2.54,2.88,3.66,3.82,4.1,3.77,3.6,2.17,2.66,1.35,1.45,1.21,1.27,1.26,1.51,1.46
09 Jul 20,1.46,1.34,1.38,1.04,1.48,0.89,1.61,2.08,1.86,2.02,1.98,3.01,3.24,3.3,2.89,1.66,1.98,1.58,1.58,1.71,2.12,1.12,1.7,1.48
10 Jul 20,1.33,1.38,1.21,1.5,1.44,1.4,2.11,2.68,2.37,2.89,3.45,2.93,3.42,4.1,4.04,2.12,2.18,1.79,1.57,1.45,1.39,1.5,1.3,1.45
11 Jul 20,1.39,1.45,1.54,1.21,1.43,1.26,1.22,1.18,1.28,1.39,2.2,1.54,1.49,1.38,1.85,1.57,1.42,1.55,1.65,1.58,1.3,1.57,1.29,1.53
12 Jul 20,1.51,1.14,1.54,1.37,1.38,1.17,1.25,1.59,1.25,1.67,1.45,1.86,2.05,1.52,2.2,1.74,1.76,1.46,1.36,1.47,1.54,1.48,1.29,1.46
13 Jul 20,1.7,1.41,1.4,1.31,1.66,1.44,2.18,2.75,2.39,4.05,4.7,4.52,4.02,4.5,4.22,3.05,2.85,1.82,1.51,1.38,1.74,1.58,1.34,1.53
14 Jul 20,1.66,1.28,1.46,1.32,1.56,1.54,1.79,2.52,2.66,2.9,3.95,3.78,3.47,4.14,4.05,2.07,2.15,1.49,1.68,2.21,1.17,1.5,1.39,1.36
15 Jul 20,1.22,1.46,1.34,1.47,1.34,1.06,2.21,2.38,1.98,3.37,3.9,4.58,4.16,4.23,3.99,2.94,2.26,1.51,1.47,1.58,1.17,1.62,1.46,1.64
16 Jul 20,1.26,1.39,1.1,1.54,1.2,0.93,2.38,2.74,2.82,3.5,3.97,4.02,4.64,3.88,3.36,2.83,2.25,1.5,1.35,1.43,1.14,1.66,0.97,1.3
17 Jul 20,1.33,1.12,1.19,1.17,1.03,1.29,2.03,2.45,2.28,3.44,4.26,15.46,15.45,15.54,8.45,3.21,2.5,1.58,1.62,1.43,1.2,1.66,1.74,1.42
18 Jul 20,1.13,1.31,1.06,1.69,1.41,1.03,1.13,1.61,1.13,2.29,1.62,1.99,2.02,1.66,1.76,2.42,1.87,1.47,1.78,1.49,1.53,1.75,1.5,1.62
19 Jul 20,1.53,1.47,1.01,1.85,1.71,1.18,1.52,1.27,1.69,1.77,2.18,2.07,1.89,1.98,1.65,1.9,1.87,1.74,1.98,1.62,1.4,1.29,1.29,1.4
20 Jul 20,1.3,1.62,0.94,1.48,1.09,1.47,1.75,2.86,2.1,3.21,15.86,16.42,16.95,16.43,7.79,3.14,2.5,1.63,1.5,1.33,1.08,1.6,1.27,1.4
21 Jul 20,1.14,1.54,1.2,1.28,1.15,1.07,1.82,2.02,2.34,2.5,2.73,2.86,2.78,3.02,2.88,1.91,1.82,1.88,1.81,1.09,1.51,1.55,1.32,1.43
22 Jul 20,1.32,1.53,1.32,1.31,1.43,1.1,1.95,2.83,2.96,3.3,4.71,4.32,4.59,4.46,3.54,2.3,2.09,1.96,2.07,1.66,1.78,1.66,1.26,1.55
23 Jul 20,1.22,1.41,1.41,1.3,1.34,1.18,2.01,3.47,3.41,4.09,3.78,4.04,4.27,4.2,3.58,2.66,2.09,1.34,1.43,1.47,1.33,1.56,1.27,1.38
24 Jul 20,1.51,1.26,1.3,1.11,1.54,1.02,1.98,2.89,2.45,2.7,3.03,3.2,4.18,3.9,3.81,1.95,2.05,1.66,1.38,1.38,1.44,1.33,1.42,1.01
25 Jul 20,1.55,1.2,1.42,1.03,1.26,1.17,1.06,1.31,1.46,1.05,1.45,1.47,1.59,1.78,1.55,1.57,1.62,1.37,1.76,1.22,1.57,1.21,1.32,1.23
26 Jul 20,1.27,1.14,1.38,1.04,1.4,1.1,1.09,1.33,1.45,1.72,1.44,1.35,1.52,1.82,1.57,1.68,1.48,1.3,1.51,1.05,1.72,1.54,1.39,1.35
27 Jul 20,1.33,1.38,1.78,1.28,1.34,1.24,2.15,3.11,2.74,2.98,4.48,4.52,4.26,4.87,5.27,3.87,2.98,1.74,1.59,1.44,1.66,1.58,1.58,1.94
28 Jul 20,1.62,1.26,1.93,1.74,1.39,1.49,1.9,2.94,3.25,3.54,4.39,5.15,4.42,3.82,4.8,2.87,2.27,1.87,1.68,1.62,1.82,1.47,1.95,1.61
29 Jul 20,1.85,1.05,2.09,1.46,1.87,1.22,2.1,2.74,4.05,13.61,16.13,5.47,5.67,5.14,5.78,5.47,3.61,2.14,1.69,1.7,1.89,1.76,1.98,1.77
30 Jul 20,1.92,1.45,1.88,1.81,1.82,1.59,1.82,2.47,3.45,3.3,3.52,4.27,4.72,4.35,4.34,2.87,2.84,2.06,1.3,1.39,1.49,1.53,1.25,1.65
31 Jul 20,1.58,1.58,1.42,1.2,1.62,1.29,2.09,3.51,3.34,4,4.33,4.56,5.09,4.67,4.53,2.88,2.9,2.57,2.38,2.4,2.09,2.19,2.02,2.18
01 Aug 20,1.94,2.07,1.95,2.14,1.81,2.03,1.61,2.32,2.1,2.64,2.56,2.62,2.78,2.83,3.18,2.59,2.41,2.08,1.9,1.85,2.07,1.76,1.58,2.17
02 Aug 20,1.63,1.67,1.53,1.75,1.7,1.76,1.39,1.72,1.93,2.05,1.74,2.46,2.1,2.42,2.17,2.23,2.33,2.29,1.65,2.02,1.78,1.85,1.4,1.86
03 Aug 20,1.76,1.75,1.25,1.83,1.49,1.43,2.29,3.31,3.4,3.9,4.93,10.61,16.61,16.37,13.37,3.43,2.79,2.21,2.3,1.8,1.72,1.43,1.77,1.44
04 Aug 20,1.86,1.57,1.86,1.35,1.54,1.31,1.76,2.53,2.26,2.89,3.94,3.91,3.45,3.99,3.85,2.39,2.03,1.71,1.54,1.58,1.18,1.66,1.57,1.76
05 Aug 20,1.37,1.66,1.53,1.59,1.24,1.57,2.22,3.29,2.38,3.58,4.34,5.33,4.5,4.85,4.91,3.2,2.17,1.65,1.94,1.53,1.36,1.48,1.56,1.45
06 Aug 20,1.62,1.42,1.71,1.4,1.64,1.18,1.97,2.38,2.42,3.15,3.06,3.82,3.53,4.11,3.27,2.42,2.16,1.5,1.7,1.86,1.88,1.54,1.81,1.56
07 Aug 20,1.54,1.7,1.74,1.66,1.49,1.57,2.02,3.67,3.16,3.71,3.57,3.02,3.26,3.98,3.35,2.22,2.1,1.47,1.57,2.18,1.71,1.85,1.64,1.59
08 Aug 20,1.33,1.88,1.45,1.49,1.45,1.3,1.41,1.59,2.05,1.82,1.83,1.61,1.42,2,1.9,1.69,1.96,1.74,1.74,1.95,1.52,1.73,1.94,1.65
09 Aug 20,1.86,1.86,1.78,1.54,1.77,1.69,1.5,1.89,1.89,1.96,1.62,2.2,2.01,2.22,1.95,2.52,2.66,2.32,1.86,2.16,1.95,1.67,1.96,1.51
10 Aug 20,1.95,1.74,1.7,1.59,1.74,1.4,2.1,3.82,2.77,3.5,3.66,4.33,4.02,4.81,4.16,3.34,3.03,1.9,2.24,2.29,1.77,2.26,1.81,2.02
11 Aug 20,2.2,1.75,2,1.73,1.94,1.59,2.18,3.1,3.6,3.98,4.26,4.9,5.01,5.56,4.86,4.36,2.83,2.02,1.77,2.05,1.74,1.77,2.19,2.03
12 Aug 20,2.18,1.73,1.86,2.11,1.77,1.85,2.49,3.62,4.17,4.16,4.34,3.93,4.39,4.85,4.38,2.79,2.27,1.94,2,1.77,1.94,1.84,2.13,2.04
13 Aug 20,1.85,2.26,2.11,1.73,1.72,1.85,2.26,3.39,3.33,3.73,3.67,3.7,3.95,3.82,3.87,2.87,2.56,2.83,2.17,2.01,2.27,1.95,1.95,1.76
14 Aug 20,1.96,1.95,1.88,1.58,2.22,1.58,2.8,3.92,3.71,3.98,4.69,4.38,4.89,4.74,4.11,3.53,3.26,2.11,2.21,2.42,2.09,1.72,2.15,1.85
15 Aug 20,1.68,1.84,1.86,1.83,1.7,1.86,1.67,1.84,1.9,2.13,2.11,2.61,2.12,2.28,2.3,2.57,2.13,2.16,2.26,2.2,1.71,1.98,2.36,1.65
16 Aug 20,1.91,1.97,1.82,1.73,1.81,1.67,1.88,1.92,1.85,2.17,2.26,2.07,2.39,2.4,2.54,1.99,2.28,2.29,2.11,1.81,2.1,2.05,1.66,1.52
17 Aug 20,2.1,1.76,1.85,1.71,1.92,1.87,3.08,4.02,4.06,5.48,5.64,5.6,6.26,5.74,4.99,3.26,3.54,1.81,2.04,1.76,1.54,1.67,1.66,1.73
18 Aug 20,1.99,1.7,1.82,1.7,1.74,1.66,2.15,3.16,3.31,3.92,5.02,4.45,5.01,4.57,4.46,2.58,2.51,1.7,1.84,2.09,1.51,1.74,1.87,1.66
19 Aug 20,1.75,1.58,1.9,1.79,1.73,1.62,2.36,3.14,2.97,2.98,2.86,2.65,2.93,3.66,3.5,2.61,2.33,2.26,2.34,2.37,1.64,2.47,2.66,2.02
20 Aug 20,2.38,2.43,2.03,2.12,2.22,2.07,2.17,2.46,2.61,2.73,3.52,3.95,4.28,3.35,3.1,2.19,1.97,1.52,2.21,2.62,2.68,2.54,2.59,2.49
21 Aug 20,2.91,1.98,1.58,1.54,1.67,1.18,2.49,2.98,2.77,2.3,3.68,3.74,3.84,3.4,3.51,2.45,2.34,1.98,1.98,1.86,1.79,1.29,1.78,1.54
22 Aug 20,1.84,1.45,1.67,1.36,1.56,1.36,1.66,1.69,1.77,1.34,1.61,1.6,1.49,1.88,1.42,1.65,1.79,1.42,1.77,1.66,1.58,1.39,1.66,1.69
23 Aug 20,1.7,1.44,1.7,1.91,1.43,1.54,1.38,1.86,1.45,1.62,1.81,1.41,1.8,1.81,1.8,2.66,2.18,1.87,2.12,2.02,1.56,1.88,1.61,1.66
24 Aug 20,1.31,1.78,1.52,1.78,1.38,1.81,2.38,3.06,2.59,3.66,4.88,4.67,4.76,5.42,4.85,3.79,3.59,1.88,1.66,1.91,1.58,1.7,1.5,1.42
25 Aug 20,1.34,1.68,1.36,1.37,1.3,1.21,1.83,1.5,2.56,3.14,4.35,3.97,5.31,4.77,3.92,3.01,2.64,1.83,1.74,1.66,1.76,1.56,1.93,2.27
26 Aug 20,1.96,1.59,1.66,2,1.39,1.92,2.3,3.26,3.14,3.42,3.99,4.5,4.72,4.25,3.73,3.16,2.62,2.19,1.68,1.75,1.54,1.33,1.5,1.67
27 Aug 20,1.85,1.47,1.61,1.7,1.26,1.64,2.25,2.74,2.79,2.99,4.1,4.33,3.87,3.97,4.09,2.81,1.8,2.04,1.56,1.61,1.45,1.54,1.67,1.64
28 Aug 20,1.8,1.62,1.67,1.31,1.62,1.53,2.54,2.8,2.4,3.11,3.53,3.96,4.05,4.08,3.57,2.66,2.33,2.46,1.9,2.09,1.94,1.79,1.66,1.86
29 Aug 20,1.7,1.8,1.38,1.62,1.51,1.75,1.24,1.95,1.99,1.98,1.96,2.5,2.3,2.47,2.34,2.46,2.46,2.43,2.15,2.28,2.04,1.9,1.93,1.84
30 Aug 20,1.86,2.02,1.84,1.74,1.9,1.81,1.9,2.07,2.03,2.1,2.19,2.33,2.32,2.24,2.25,2.55,2.1,2.49,2.01,1.98,2.25,2.02,1.94,1.87
31 Aug 20,1.71,1.82,1.93,1.58,1.55,1.65,2.58,3,3.01,4.48,5.56,5.85,6.15,6.21,5.3,3.82,3.9,3.07,2.54,2.56,2.53,2.09,2.52,2.32
01 Sep 20,2.54,2.54,2.5,1.8,2.05,2.39,2.81,2.88,2.87,3.57,3.78,4.54,5.81,4.9,4.42,2.96,2.56,2.32,1.78,1.64,1.78,1.71,1.98,1.57
02 Sep 20,2.46,1.9,1.51,1.74,1.41,1.86,2.57,3.38,4.07,4.5,5.22,5.15,4.9,5.16,4.84,3.23,3.08,2.81,1.7,2.5,1.97,1.58,1.97,1.77
03 Sep 20,2.05,1.43,2.12,1.74,1.3,1.75,2.82,2.26,2.62,3.1,3.28,3.86,3.46,3.32,4.13,2.05,1.88,2.37,1.68,1.86,1.52,1.92,1.83,1.57
04 Sep 20,1.93,1.74,1.5,1.91,1.55,1.78,2.76,3.34,2.88,2.98,4.54,4.94,4.41,4.1,4.34,2.85,3.03,2.68,1.92,2.34,2.08,1.57,2.1,1.79
05 Sep 20,1.85,2.18,1.62,1.68,1.67,1.53,1.7,1.84,1.54,2.11,1.8,2.07,1.89,2.28,2.34,2.04,2.03,2.19,1.77,1.62,1.43,1.58,1.69,1.32
06 Sep 20,1.93,1.58,1.5,1.54,1.59,1.66,1.46,1.62,1.54,1.76,1.98,1.84,2.72,2.62,2.41,2.4,2.62,2.34,2.06,1.8,2.06,1.74,1.74,1.74
07 Sep 20,1.89,1.54,2.03,1.74,1.58,1.77,2.53,2.86,3.33,4.32,4.32,4.96,5.08,5.92,4.73,3.63,3.43,2.97,2.1,2.34,3.01,2.05,1.96,2.27
08 Sep 20,2.29,1.98,2.1,2.24,1.91,2.06,2.69,3.62,3.66,4.94,4.79,4.19,4.95,4.87,4.75,3.58,3.11,2.72,1.8,1.78,1.7,1.72,1.72,1.64
09 Sep 20,1.67,1.42,1.58,1.74,1.33,1.38,2.3,3.41,3.14,3.26,4.64,5.02,4.92,5.2,4.52,2.68,2.26,2.16,1.54,1.7,1.74,1.92,1.62,1.67
10 Sep 20,1.8,1.4,1.54,1.41,1.35,1.61,1.76,2.18,1.98,2.66,3.37,3.79,4.3,3.85,4.62,3.41,3.22,2.92,2.46,2.34,2.31,2.33,2.27,2.46
11 Sep 20,2.4,2.38,2.69,2.33,2.27,2.34,3.32,3.72,3.74,3.48,3.84,4.46,4.39,4.42,3.9,3.06,3.16,2.6,2.35,2.31,2.21,2.19,2.12,2.22
12 Sep 20,2.02,2.18,2.05,1.93,2.12,1.89,1.91,2.32,2.3,1.95,2.26,2.21,2.13,2.35,2.17,2.41,2.25,2.42,1.99,1.99,1.85,2.19,2.21,1.77
13 Sep 20,1.99,2.06,1.71,1.64,1.7,1.86,1.8,1.85,2.13,2.18,2.26,2.36,2.45,2.22,2.34,2.53,2.18,2.18,2.36,2.26,1.74,2.13,2.24,1.7
14 Sep 20,1.69,1.9,1.95,1.69,1.94,2.02,2.62,3.26,3.74,3.94,4.18,4.03,4.32,4.78,3.07,2.68,2.9,2.74,1.88,1.88,1.7,1.83,1.65,1.77
15 Sep 20,1.79,1.36,1.71,1.76,1.62,1.45,2.4,2.74,0.31,0,0,0,0,0,0,0.38,2.5,2.8,1.61,1.7,1.86,1.55,2,1.31
16 Sep 20,1.89,1.69,1.41,1.52,1.63,1.7,2.46,2.92,2.99,3.17,4.52,4.86,4.98,5.74,4.34,3.1,3.61,2.59,2.19,2,2.25,1.94,2.34,1.84
17 Sep 20,2.1,2.24,1.77,1.62,2.01,1.94,2.49,2.81,3.46,2.77,4.4,4.23,3.9,4.1,3.85,2.54,3.33,2.24,1.67,2.06,1.76,1.94,1.85,1.82
18 Sep 20,1.71,1.52,2.02,1.49,1.78,1.54,2.87,3.06,2.84,3.49,4.29,3.84,3.98,4.14,3.66,2.92,3.37,2.3,1.93,2.24,2.13,1.65,1.92,2.09
19 Sep 20,2.04,2.07,1.91,1.69,1.85,1.66,2.12,2.14,2.2,2.39,2.71,2.39,2.68,3.03,2.64,2.67,3.04,2.76,2.42,2.19,2.45,2.51,2.39,2.04
20 Sep 20,2.7,2.42,2.24,2.02,2.5,2.22,2.47,2.34,2.51,2.52,2.78,2.66,2.71,2.78,2.99,2.66,2.53,2.55,2.27,2.2,2.61,2.52,2.19,2.22
21 Sep 20,2.4,2.33,2.58,1.97,2.03,2.33,3.53,3.69,4.03,4.1,8.96,16.75,16.71,16.8,9.78,3.92,3.98,3.18,2.26,2.13,1.81,1.66,2.51,1.98
22 Sep 20,1.98,1.99,1.94,1.7,2.01,1.59,5.7,13.98,14.81,14.66,15.8,16.02,16.09,16.35,9.49,4.97,3.62,2.84,2.02,1.97,1.58,2.16,1.98,1.58
23 Sep 20,2.12,1.7,1.6,1.78,2.05,1.39,3.15,3.28,2.65,3.58,3.63,12.05,16.24,11.97,3.77,2.57,2.46,2.46,1.7,1.86,1.79,1.88,1.4,1.92
24 Sep 20,1.82,1.56,1.85,1.62,1.86,1.41,2.8,2.98,6.39,15.28,15.89,13.17,4.39,3.93,4.16,3.05,2.62,2.64,2.25,2.05,1.98,1.93,2.01,1.79
25 Sep 20,2.05,1.91,1.76,1.91,2.17,1.86,2.87,3.29,2.89,4.33,4.79,5.47,5.22,5.14,4.88,3.49,2.86,2.16,1.54,1.73,1.34,1.53,1.65,1.68
26 Sep 20,1.34,1.66,1.44,1.62,1.49,1.53,2.49,2.59,2.14,3.1,2.81,2.51,2.39,2.32,2.44,2.76,2.2,2.45,2.14,1.92,1.96,2.02,1.75,1.64
27 Sep 20,2.02,1.72,1.67,1.85,1.42,1.82,1.97,1.85,1.89,2.18,2.06,2.28,2.09,2.28,2.46,2.47,2.16,2.39,2.11,1.73,1.77,1.75,1.52,1.38
28 Sep 20,1.4,1.73,1.36,1.63,1.5,1.65,2.9,3.43,3.45,4.14,4.47,4.46,4.61,4.44,4.22,3.8,2.86,2.22,1.83,1.65,1.58,1.61,1.9,1.52
29 Sep 20,1.73,1.89,1.21,1.66,1.46,1.45,2.35,2.82,2.97,4.01,4.76,5.06,5.03,5.07,4.55,3.36,3.49,2.66,1.84,1.94,2.06,2.06,1.74,1.97
30 Sep 20,1.87,1.62,1.64,2.09,1.78,1.83,3.13,4.07,4.16,4.59,4.83,5.5,5.35,5.3,4.84,3.71,3.26,2.71,1.61,1.38,1.54,2.06,1.67,1.65
01 Oct 20,1.61,1.66,1.57,1.7,1.9,1.66,3.01,3.3,3.66,4.32,4.12,4.38,4.6,4.54,4.38,3.53,3,2.64,2.95,3.01,2.22,2.17,1.95,1.77
02 Oct 20,2.13,2.1,1.67,2.14,2.08,1.97,3.38,3.77,3.68,4.48,4.85,4.86,5.32,5.64,5.44,4.22,3.71,3.22,2.78,2.9,2.41,2.4,2.72,2.23
03 Oct 20,2.38,2.68,2.14,2.28,2.59,2.27,2.38,2.78,2.57,2.69,3.28,3.09,3.32,3.39,3.15,3.46,3.34,3.16,2.64,2.34,2.51,2.28,2.26,2.3
04 Oct 20,1.97,2.25,2.31,1.67,2.21,1.91,2.29,2.2,2.49,2.56,2.54,3.01,3.61,3.29,3.94,3.23,2.84,2.68,1.91,2.07,2.41,1.81,1.89,2.23
05 Oct 20,1.92,1.97,1.99,2.06,1.75,2.81,4.15,3.66,4.96,5.47,5.82,5.95,6.18,5.48,4.47,4.14,2.97,2.73,2.19,1.38,2.13,1.81,1.98,1.79
06 Oct 20,1.68,1.99,2.04,1.76,1.52,2.38,3.44,3.29,4.1,5.39,6.9,6.46,6.27,6.2,5.26,3.14,3.3,2.49,1.62,1.93,1.89,1.91,1.98,1.74
07 Oct 20,1.79,1.86,1.94,1.57,1.74,2.89,3.16,3.31,4.16,5.42,5.35,4.39,5,5.28,3.86,2.49,2.5,2.12,1.46,1.68,2.09,2.14,1.51,2.07
08 Oct 20,2.09,1.99,1.61,1.92,2.05,2.46,2.61,3.22,3.74,4.26,4.79,4.54,4.75,4.5,2.78,3.31,1.95,2.43,1.8,1.44,1.91,2.09,1.72,1.65
09 Oct 20,1.9,2,1.63,1.96,1.87,2.7,3.39,3.51,4.14,5.16,4.78,5.63,5.4,4.91,3.46,3.69,2.55,2.03,2.1,2.1,2.18,2.25,1.86,1.92
10 Oct 20,2.22,2.08,1.85,2.32,1.78,1.86,2.03,1.97,2.62,2.37,2.6,2.59,2.56,2.58,2.93,3.12,2.45,2.59,2.52,2.15,2.23,2.17,1.86,2.32
11 Oct 20,2.16,1.87,2.33,2.03,2.06,2.16,2.18,2.07,2.59,2.93,2.78,2.46,2.8,2.76,2.81,2.72,2.72,2.42,2.08,2.02,2.44,2.15,2.21,1.96
12 Oct 20,2.07,1.63,2.17,1.73,1.7,2.54,4.21,4.14,4.35,5.14,4.95,5.63,5.77,5.7,4.87,4.24,3.9,2.83,2.48,2.18,2.38,2.33,2.14,1.99
13 Oct 20,2.1,2.34,2.18,1.73,2.2,2.8,3.77,3.85,5.14,9.98,8.33,8.47,5.23,4.81,3.68,3.93,3.13,2.5,2.59,2.15,2.3,2.58,2.13,2.07
14 Oct 20,2.44,2.23,2.19,2.12,2.06,3.2,4.15,4.48,4.77,4.71,5.99,5.97,5.69,5.82,4.41,4.29,3.44,3.11,2.78,2.48,2.4,2.25,2.46,2.41
15 Oct 20,2.74,2.5,2.5,2.4,2.5,3.43,3.89,4.42,5.31,6.29,6.81,7.45,7.14,7.26,5.55,5.38,4.17,4,3.75,3.99,3.92,3.84,3.14,3.41
16 Oct 20,3.7,3.76,3.4,3.52,3.77,4.73,4.99,3.85,5,5.73,4.64,5.42,5.38,4.86,4.06,3.76,2.59,3.31,2.79,2.16,2.41,2.5,1.95,2.45
17 Oct 20,2.58,2.33,2.38,2.6,2.03,2.43,2.7,2.49,2.5,2.69,2.65,3.13,3.34,3.03,3.29,3.03,2.9,2.92,2.51,2.11,2.05,2.49,2.14,2.02
18 Oct 20,2.65,2.42,1.99,2.2,2.23,2.1,2.26,2.4,2.25,2.28,2.71,2.79,2.4,2.54,2.74,2.62,2.49,3.04,2.86,2.11,2.45,2.3,1.86,2.27
19 Oct 20,2.25,1.79,2.13,2.1,1.66,3.06,3.44,3.5,3.64,5.05,4.78,5.1,4.69,4.39,3.54,3.32,3.29,2.52,2.37,1.95,2.29,2.13,2.08,2.13
20 Oct 20,1.91,2.01,2.34,1.8,1.84,3.06,4.14,3.87,4.42,5.14,4.72,5.32,5.16,4.87,3.83,4.23,2.93,2.78,2.68,2.49,2.63,2.7,2.51,2.4
21 Oct 20,2.37,2.5,2.17,2.12,2.55,3.56,4.27,4.3,4.74,4.57,5.34,5.81,5.42,4.98,3.85,3.17,2.74,2.9,2.73,1.91,2.07,2.26,1.89,2.01
22 Oct 20,2.54,2,2.15,2.05,1.78,2.95,3.91,3.76,4.81,5.47,5.64,5.91,6.12,5.9,5.82,6.46,5.44,3.94,3.58,2.99,2.81,3.19,3.41,3.15
23 Oct 20,3.08,3.31,3.25,2.84,3.19,3.48,3.06,3.4,3.52,3.26,3.7,3.81,4.52,2.92,3.42,2.98,2.85,2.89,2.41,2.31,2.38,2.78,2.41,2.29
24 Oct 20,2.5,2.23,2.21,2.04,2.14,2.18,2.16,2.26,2.98,2.48,2.47,2.48,2.78,2.18,2.3,2.8,2.28,2.26,2.46,2.3,1.95,2.24,2.79,2.06
25 Oct 20,2.4,2.18,2.15,2.04,2.07,2.24,1.97,2.29,2.46,2.15,3,2.98,2.24,2.51,2.54,2.29,2.38,2.46,2.73,2.09,2.18,1.98,2.37,2.02
26 Oct 20,1.99,2.12,2.02,1.76,2.09,2.94,4.6,5.92,5.1,4.98,6.38,6.24,5.62,5.73,4.75,4.29,4.35,3.8,3.27,3.26,3.37,3.42,3.23,3.37
27 Oct 20,3.3,2.88,3.34,3.28,3.19,4.62,5.54,5.02,6.04,6.65,6.78,7.18,7.3,5.64,5.63,3.77,4.78,3.31,3.74,2.82,2.74,2.97,2.72,2.98

