Date,Outlet,Cost,Quantity
2021-03-20,Burger Barn,292.72000000000025,283
2021-03-20,Exit Building,516.1200000000001,180
2021-03-20,Hungry Shack,1043.7800000000007,1264
2021-03-20,Munchies Cafe,365.1,328
2021-03-20,Snack Stop,137.60000000000002,169
2021-03-21,Burger Barn,129.8400000000001,139
2021-03-21,Exit Building,161.37000000000003,84
2021-03-21,Hungry Shack,640.8199999999996,816
2021-03-21,Munchies Cafe,330.6100000000001,377
2021-03-26,Exit Building,88.78000000000002,38
2021-03-26,Hungry Shack,334.4500000000003,380
2021-03-26,Munchies Cafe,177.98999999999998,162
2021-03-27,Exit Building,158.34999999999997,46
2021-03-27,Hungry Shack,425.9400000000003,501
2021-03-27,Munchies Cafe,124.49999999999993,128
2021-03-28,Exit Building,325.79,85
2021-03-28,Hungry Shack,659.6200000000006,779
2021-03-28,Munchies Cafe,256.5099999999999,269
2021-05-26,Exit Building,0.92,1
2021-06-03,Hungry Shack,5.551115123125783e-16,0
